litex_boards/targets/vcd-dumps/deca-ethernet-ping-v3-more-sigs.vcd
$date
	2021-09-15 19:41
$end
$timescale 4000ps $end
$scope 1ps $end
$var wire 8 ! main_ethphy_rx_cnt $end
$var wire 8 " main_ethphy_tx_cnt $end
$var wire 1 # main_basesoc_ethcore_arp_rx_source_source_valid $end
$var wire 1 $ main_basesoc_ethcore_arp_rx_source_source_ready $end
$var wire 1 % main_basesoc_ethcore_arp_rx_source_source_first $end
$var wire 1 & main_basesoc_ethcore_arp_rx_source_source_last $end
$var wire 1 ' main_basesoc_ethcore_arp_rx_source_source_payload_reply $end
$var wire 1 ( main_basesoc_ethcore_arp_rx_source_source_payload_request $end
$var wire 32 ) main_basesoc_ethcore_arp_rx_source_source_payload_ip_address $end
$var wire 48 * main_basesoc_ethcore_arp_rx_source_source_payload_mac_address $end
$var wire 1 + main_basesoc_ethcore_arp_tx_source_source_valid $end
$var wire 1 , main_basesoc_ethcore_arp_tx_source_source_ready $end
$var wire 1 - main_basesoc_ethcore_arp_tx_source_source_first $end
$var wire 1 . main_basesoc_ethcore_arp_tx_source_source_last $end
$var wire 16 / main_basesoc_ethcore_arp_tx_source_source_payload_ethernet_type $end
$var wire 48 0 main_basesoc_ethcore_arp_tx_source_source_payload_sender_mac $end
$var wire 48 1 main_basesoc_ethcore_arp_tx_source_source_payload_target_mac $end
$var wire 8 2 main_basesoc_ethcore_arp_tx_source_source_payload_data $end
$var wire 1 3 main_basesoc_ethcore_arp_tx_source_source_payload_last_be $end
$var wire 1 4 main_basesoc_ethcore_arp_tx_source_source_payload_error $end
$var wire 1 5 main_ethphy_liteethphymiirx_source_source_valid $end
$var wire 1 6 main_ethphy_liteethphymiirx_source_source_ready $end
$var wire 1 7 main_ethphy_liteethphymiirx_source_source_first $end
$var wire 1 8 main_ethphy_liteethphymiirx_source_source_last $end
$var wire 8 9 main_ethphy_liteethphymiirx_source_source_payload_data $end
$var wire 1 : main_ethphy_liteethphymiirx_source_source_payload_last_be $end
$var wire 1 ; main_ethphy_liteethphymiirx_source_source_payload_error $end
$var wire 1 < eth_rst_n $end
$var wire 1 = eth_mdio $end
$var wire 1 > eth_mdc $end
$var wire 1 ? eth_rx_dv $end
$var wire 1 @ eth_rx_er $end
$var wire 4 A eth_rx_data $end
$var wire 1 B eth_tx_en $end
$var wire 4 C eth_tx_data $end
$var wire 1 D eth_col $end
$var wire 1 E eth_crs $end
$var wire 1 F eth_pcf_en $end
$var wire 1 G main_basesoc_ethcore_mac_rx_cdc_source_source_valid $end
$var wire 1 H main_basesoc_ethcore_mac_rx_cdc_source_source_ready $end
$var wire 1 I main_basesoc_ethcore_mac_rx_cdc_source_source_first $end
$var wire 1 J main_basesoc_ethcore_mac_rx_cdc_source_source_last $end
$var wire 8 K main_basesoc_ethcore_mac_rx_cdc_source_source_payload_data $end
$var wire 1 L main_basesoc_ethcore_mac_rx_cdc_source_source_payload_last_be $end
$var wire 1 M main_basesoc_ethcore_mac_rx_cdc_source_source_payload_error $end
$var wire 1 N main_basesoc_ethcore_mac_tx_cdc_sink_sink_valid $end
$var wire 1 O main_basesoc_ethcore_mac_tx_cdc_sink_sink_ready $end
$var wire 1 P main_basesoc_ethcore_mac_tx_cdc_sink_sink_first $end
$var wire 1 Q main_basesoc_ethcore_mac_tx_cdc_sink_sink_last $end
$var wire 8 R main_basesoc_ethcore_mac_tx_cdc_sink_sink_payload_data $end
$var wire 1 S main_basesoc_ethcore_mac_tx_cdc_sink_sink_payload_last_be $end
$var wire 1 T main_basesoc_ethcore_mac_tx_cdc_sink_sink_payload_error $end
$var wire 1 U main_basesoc_ethcore_arp_rx_sink_sink_valid $end
$var wire 1 V main_basesoc_ethcore_arp_rx_sink_sink_ready $end
$var wire 1 W main_basesoc_ethcore_arp_rx_sink_sink_first $end
$var wire 1 X main_basesoc_ethcore_arp_rx_sink_sink_last $end
$var wire 16 Y main_basesoc_ethcore_arp_rx_sink_sink_payload_ethernet_type $end
$var wire 48 Z main_basesoc_ethcore_arp_rx_sink_sink_payload_sender_mac $end
$var wire 48 [ main_basesoc_ethcore_arp_rx_sink_sink_payload_target_mac $end
$var wire 8 \ main_basesoc_ethcore_arp_rx_sink_sink_payload_data $end
$var wire 1 ] main_basesoc_ethcore_arp_rx_sink_sink_payload_last_be $end
$var wire 1 ^ main_basesoc_ethcore_arp_rx_sink_sink_payload_error $end
$var wire 1 _ main_basesoc_ethcore_arp_tx_sink_sink_valid $end
$var wire 1 ` main_basesoc_ethcore_arp_tx_sink_sink_ready $end
$var wire 1 a main_basesoc_ethcore_arp_tx_sink_sink_first $end
$var wire 1 b main_basesoc_ethcore_arp_tx_sink_sink_last $end
$var wire 1 c main_basesoc_ethcore_arp_tx_sink_sink_payload_reply $end
$var wire 1 d main_basesoc_ethcore_arp_tx_sink_sink_payload_request $end
$var wire 32 e main_basesoc_ethcore_arp_tx_sink_sink_payload_ip_address $end
$var wire 48 f main_basesoc_ethcore_arp_tx_sink_sink_payload_mac_address $end
$var wire 1 g main_ethphy_liteethphymiitx_sink_sink_valid $end
$var wire 1 h main_ethphy_liteethphymiitx_sink_sink_ready $end
$var wire 1 i main_ethphy_liteethphymiitx_sink_sink_first $end
$var wire 1 j main_ethphy_liteethphymiitx_sink_sink_last $end
$var wire 8 k main_ethphy_liteethphymiitx_sink_sink_payload_data $end
$var wire 1 l main_ethphy_liteethphymiitx_sink_sink_payload_last_be $end
$var wire 1 m main_ethphy_liteethphymiitx_sink_sink_payload_error $end
$var wire 1 n scope_clk $end
$var wire 1 o scope_trig $end
$unscope  $end
$enddefinitions  $end
$dumpvars
bxxxxxxxx !
bxxxxxxxx "
bx #
bx $
bx %
bx &
bx '
bx (
bxxxxxxxxxxxxxxxxxxxxxxxxxxxxxxxx )
bxxxxxxxxxxxxxxxxxxxxxxxxxxxxxxxxxxxxxxxxxxxxxxxx *
bx +
bx ,
bx -
bx .
bxxxxxxxxxxxxxxxx /
bxxxxxxxxxxxxxxxxxxxxxxxxxxxxxxxxxxxxxxxxxxxxxxxx 0
bxxxxxxxxxxxxxxxxxxxxxxxxxxxxxxxxxxxxxxxxxxxxxxxx 1
bxxxxxxxx 2
bx 3
bx 4
bx 5
bx 6
bx 7
bx 8
bxxxxxxxx 9
bx :
bx ;
bx <
bx =
bx >
bx ?
bx @
bxxxx A
bx B
bxxxx C
bx D
bx E
bx F
bx G
bx H
bx I
bx J
bxxxxxxxx K
bx L
bx M
bx N
bx O
bx P
bx Q
bxxxxxxxx R
bx S
bx T
bx U
bx V
bx W
bx X
bxxxxxxxxxxxxxxxx Y
bxxxxxxxxxxxxxxxxxxxxxxxxxxxxxxxxxxxxxxxxxxxxxxxx Z
bxxxxxxxxxxxxxxxxxxxxxxxxxxxxxxxxxxxxxxxxxxxxxxxx [
bxxxxxxxx \
bx ]
bx ^
bx _
bx `
bx a
bx b
bx c
bx d
bxxxxxxxxxxxxxxxxxxxxxxxxxxxxxxxx e
bxxxxxxxxxxxxxxxxxxxxxxxxxxxxxxxxxxxxxxxxxxxxxxxx f
bx g
bx h
bx i
bx j
bxxxxxxxx k
bx l
bx m
bx n
bx o
$end
#0
b00000111 !
b10101110 "
b0 #
b0 $
b0 %
b0 &
b0 '
b0 (
b00000000000000000000000000000000 )
b000000000000000000000000000000000000000000000000 *
b0 +
b1 ,
b0 -
b0 .
b0000100000000110 /
b000100001110001011010101000000000000000000000000 0
b000000000000000000000000000000000000000000000000 1
b00000000 2
b0 3
b0 4
b1 5
b1 6
b0 7
b0 8
b10001100 9
b0 :
b0 ;
b1 <
b1 =
b0 >
b1 ?
b0 @
b1010 A
b0 B
b0000 C
b0 D
b1 E
b0 F
b1 G
b1 H
b0 I
b0 J
b11111111 K
b0 L
b1 M
b0 N
b1 O
b0 P
b0 Q
b00000000 R
b0 S
b0 T
b0 U
b1 V
b0 W
b0 X
b0000000000000000 Y
b000000000000000000000000000000000000000000000000 Z
b000000000000000000000000000000000000000000000000 [
b00000000 \
b0 ]
b0 ^
b0 _
b1 `
b0 a
b0 b
b0 c
b0 d
b00000000000000000000000000000000 e
b000000000000000000000000000000000000000000000000 f
b0 g
b0 h
b0 i
b0 j
b00000000 k
b0 l
b0 m
b1 n
b0 o
#1
b00000111 !
b10101110 "
b0 #
b0 $
b0 %
b0 &
b0 '
b0 (
b00000000000000000000000000000000 )
b000000000000000000000000000000000000000000000000 *
b0 +
b1 ,
b0 -
b0 .
b0000100000000110 /
b000100001110001011010101000000000000000000000000 0
b000000000000000000000000000000000000000000000000 1
b00000000 2
b0 3
b0 4
b1 5
b1 6
b0 7
b0 8
b10001100 9
b0 :
b0 ;
b1 <
b1 =
b0 >
b1 ?
b0 @
b1010 A
b0 B
b0000 C
b0 D
b1 E
b0 F
b1 G
b1 H
b0 I
b0 J
b11111111 K
b0 L
b1 M
b0 N
b1 O
b0 P
b0 Q
b00000000 R
b0 S
b0 T
b0 U
b1 V
b0 W
b0 X
b0000000000000000 Y
b000000000000000000000000000000000000000000000000 Z
b000000000000000000000000000000000000000000000000 [
b00000000 \
b0 ]
b0 ^
b0 _
b1 `
b0 a
b0 b
b0 c
b0 d
b00000000000000000000000000000000 e
b000000000000000000000000000000000000000000000000 f
b0 g
b0 h
b0 i
b0 j
b00000000 k
b0 l
b0 m
b0 n
b0 o
#2
b00001000 !
b10101111 "
b0 #
b0 $
b0 %
b0 &
b0 '
b0 (
b00000000000000000000000000000000 )
b000000000000000000000000000000000000000000000000 *
b0 +
b1 ,
b0 -
b0 .
b0000100000000110 /
b000100001110001011010101000000000000000000000000 0
b000000000000000000000000000000000000000000000000 1
b00000000 2
b0 3
b0 4
b0 5
b1 6
b0 7
b0 8
b10001110 9
b0 :
b0 ;
b1 <
b1 =
b0 >
b1 ?
b0 @
b1010 A
b0 B
b0000 C
b0 D
b1 E
b0 F
b1 G
b1 H
b0 I
b0 J
b11111111 K
b0 L
b1 M
b0 N
b1 O
b0 P
b0 Q
b00000000 R
b0 S
b0 T
b0 U
b1 V
b0 W
b0 X
b0000000000000000 Y
b000000000000000000000000000000000000000000000000 Z
b000000000000000000000000000000000000000000000000 [
b00000000 \
b0 ]
b0 ^
b0 _
b1 `
b0 a
b0 b
b0 c
b0 d
b00000000000000000000000000000000 e
b000000000000000000000000000000000000000000000000 f
b0 g
b0 h
b0 i
b0 j
b00000000 k
b0 l
b0 m
b1 n
b0 o
#3
b00001000 !
b10101111 "
b0 #
b0 $
b0 %
b0 &
b0 '
b0 (
b00000000000000000000000000000000 )
b000000000000000000000000000000000000000000000000 *
b0 +
b1 ,
b0 -
b0 .
b0000100000000110 /
b000100001110001011010101000000000000000000000000 0
b000000000000000000000000000000000000000000000000 1
b00000000 2
b0 3
b0 4
b0 5
b1 6
b0 7
b0 8
b10001110 9
b0 :
b0 ;
b1 <
b1 =
b0 >
b1 ?
b0 @
b1010 A
b0 B
b0000 C
b0 D
b1 E
b0 F
b1 G
b1 H
b0 I
b0 J
b11111111 K
b0 L
b1 M
b0 N
b1 O
b0 P
b0 Q
b00000000 R
b0 S
b0 T
b0 U
b1 V
b0 W
b0 X
b0000000000000000 Y
b000000000000000000000000000000000000000000000000 Z
b000000000000000000000000000000000000000000000000 [
b00000000 \
b0 ]
b0 ^
b0 _
b1 `
b0 a
b0 b
b0 c
b0 d
b00000000000000000000000000000000 e
b000000000000000000000000000000000000000000000000 f
b0 g
b0 h
b0 i
b0 j
b00000000 k
b0 l
b0 m
b0 n
b0 o
#4
b00001000 !
b10101111 "
b0 #
b0 $
b0 %
b0 &
b0 '
b0 (
b00000000000000000000000000000000 )
b000000000000000000000000000000000000000000000000 *
b0 +
b1 ,
b0 -
b0 .
b0000100000000110 /
b000100001110001011010101000000000000000000000000 0
b000000000000000000000000000000000000000000000000 1
b00000000 2
b0 3
b0 4
b0 5
b1 6
b0 7
b0 8
b10001110 9
b0 :
b0 ;
b1 <
b1 =
b0 >
b1 ?
b0 @
b1010 A
b0 B
b0000 C
b0 D
b1 E
b0 F
b0 G
b1 H
b0 I
b0 J
b11111111 K
b0 L
b1 M
b0 N
b1 O
b0 P
b0 Q
b00000000 R
b0 S
b0 T
b0 U
b1 V
b0 W
b0 X
b0000000000000000 Y
b000000000000000000000000000000000000000000000000 Z
b000000000000000000000000000000000000000000000000 [
b00000000 \
b0 ]
b0 ^
b0 _
b1 `
b0 a
b0 b
b0 c
b0 d
b00000000000000000000000000000000 e
b000000000000000000000000000000000000000000000000 f
b0 g
b0 h
b0 i
b0 j
b00000000 k
b0 l
b0 m
b1 n
b0 o
#5
b00001000 !
b10101111 "
b0 #
b0 $
b0 %
b0 &
b0 '
b0 (
b00000000000000000000000000000000 )
b000000000000000000000000000000000000000000000000 *
b0 +
b1 ,
b0 -
b0 .
b0000100000000110 /
b000100001110001011010101000000000000000000000000 0
b000000000000000000000000000000000000000000000000 1
b00000000 2
b0 3
b0 4
b0 5
b1 6
b0 7
b0 8
b10001110 9
b0 :
b0 ;
b1 <
b1 =
b0 >
b1 ?
b0 @
b1010 A
b0 B
b0000 C
b0 D
b1 E
b0 F
b0 G
b1 H
b0 I
b0 J
b11111111 K
b0 L
b1 M
b0 N
b1 O
b0 P
b0 Q
b00000000 R
b0 S
b0 T
b0 U
b1 V
b0 W
b0 X
b0000000000000000 Y
b000000000000000000000000000000000000000000000000 Z
b000000000000000000000000000000000000000000000000 [
b00000000 \
b0 ]
b0 ^
b0 _
b1 `
b0 a
b0 b
b0 c
b0 d
b00000000000000000000000000000000 e
b000000000000000000000000000000000000000000000000 f
b0 g
b0 h
b0 i
b0 j
b00000000 k
b0 l
b0 m
b0 n
b0 o
#6
b00001000 !
b10101111 "
b0 #
b0 $
b0 %
b0 &
b0 '
b0 (
b00000000000000000000000000000000 )
b000000000000000000000000000000000000000000000000 *
b0 +
b1 ,
b0 -
b0 .
b0000100000000110 /
b000100001110001011010101000000000000000000000000 0
b000000000000000000000000000000000000000000000000 1
b00000000 2
b0 3
b0 4
b0 5
b1 6
b0 7
b0 8
b10001110 9
b0 :
b0 ;
b1 <
b1 =
b0 >
b1 ?
b0 @
b1100 A
b0 B
b0000 C
b0 D
b1 E
b0 F
b0 G
b1 H
b0 I
b0 J
b11111111 K
b0 L
b1 M
b0 N
b1 O
b0 P
b0 Q
b00000000 R
b0 S
b0 T
b0 U
b1 V
b0 W
b0 X
b0000000000000000 Y
b000000000000000000000000000000000000000000000000 Z
b000000000000000000000000000000000000000000000000 [
b00000000 \
b0 ]
b0 ^
b0 _
b1 `
b0 a
b0 b
b0 c
b0 d
b00000000000000000000000000000000 e
b000000000000000000000000000000000000000000000000 f
b0 g
b0 h
b0 i
b0 j
b00000000 k
b0 l
b0 m
b1 n
b0 o
#7
b00001000 !
b10101111 "
b0 #
b0 $
b0 %
b0 &
b0 '
b0 (
b00000000000000000000000000000000 )
b000000000000000000000000000000000000000000000000 *
b0 +
b1 ,
b0 -
b0 .
b0000100000000110 /
b000100001110001011010101000000000000000000000000 0
b000000000000000000000000000000000000000000000000 1
b00000000 2
b0 3
b0 4
b0 5
b1 6
b0 7
b0 8
b10001110 9
b0 :
b0 ;
b1 <
b1 =
b0 >
b1 ?
b0 @
b1100 A
b0 B
b0000 C
b0 D
b1 E
b0 F
b0 G
b1 H
b0 I
b0 J
b11111111 K
b0 L
b1 M
b0 N
b1 O
b0 P
b0 Q
b00000000 R
b0 S
b0 T
b0 U
b1 V
b0 W
b0 X
b0000000000000000 Y
b000000000000000000000000000000000000000000000000 Z
b000000000000000000000000000000000000000000000000 [
b00000000 \
b0 ]
b0 ^
b0 _
b1 `
b0 a
b0 b
b0 c
b0 d
b00000000000000000000000000000000 e
b000000000000000000000000000000000000000000000000 f
b0 g
b0 h
b0 i
b0 j
b00000000 k
b0 l
b0 m
b0 n
b0 o
#8
b00001000 !
b10101111 "
b0 #
b0 $
b0 %
b0 &
b0 '
b0 (
b00000000000000000000000000000000 )
b000000000000000000000000000000000000000000000000 *
b0 +
b1 ,
b0 -
b0 .
b0000100000000110 /
b000100001110001011010101000000000000000000000000 0
b000000000000000000000000000000000000000000000000 1
b00000000 2
b0 3
b0 4
b0 5
b1 6
b0 7
b0 8
b10001110 9
b0 :
b0 ;
b1 <
b1 =
b0 >
b1 ?
b0 @
b1100 A
b0 B
b0000 C
b0 D
b1 E
b0 F
b0 G
b1 H
b0 I
b0 J
b11111111 K
b0 L
b1 M
b0 N
b1 O
b0 P
b0 Q
b00000000 R
b0 S
b0 T
b0 U
b1 V
b0 W
b0 X
b0000000000000000 Y
b000000000000000000000000000000000000000000000000 Z
b000000000000000000000000000000000000000000000000 [
b00000000 \
b0 ]
b0 ^
b0 _
b1 `
b0 a
b0 b
b0 c
b0 d
b00000000000000000000000000000000 e
b000000000000000000000000000000000000000000000000 f
b0 g
b0 h
b0 i
b0 j
b00000000 k
b0 l
b0 m
b1 n
b0 o
#9
b00001000 !
b10101111 "
b0 #
b0 $
b0 %
b0 &
b0 '
b0 (
b00000000000000000000000000000000 )
b000000000000000000000000000000000000000000000000 *
b0 +
b1 ,
b0 -
b0 .
b0000100000000110 /
b000100001110001011010101000000000000000000000000 0
b000000000000000000000000000000000000000000000000 1
b00000000 2
b0 3
b0 4
b0 5
b1 6
b0 7
b0 8
b10001110 9
b0 :
b0 ;
b1 <
b1 =
b0 >
b1 ?
b0 @
b1100 A
b0 B
b0000 C
b0 D
b1 E
b0 F
b0 G
b1 H
b0 I
b0 J
b11111111 K
b0 L
b1 M
b0 N
b1 O
b0 P
b0 Q
b00000000 R
b0 S
b0 T
b0 U
b1 V
b0 W
b0 X
b0000000000000000 Y
b000000000000000000000000000000000000000000000000 Z
b000000000000000000000000000000000000000000000000 [
b00000000 \
b0 ]
b0 ^
b0 _
b1 `
b0 a
b0 b
b0 c
b0 d
b00000000000000000000000000000000 e
b000000000000000000000000000000000000000000000000 f
b0 g
b0 h
b0 i
b0 j
b00000000 k
b0 l
b0 m
b0 n
b0 o
#10
b00001001 !
b10110000 "
b0 #
b0 $
b0 %
b0 &
b0 '
b0 (
b00000000000000000000000000000000 )
b000000000000000000000000000000000000000000000000 *
b0 +
b1 ,
b0 -
b0 .
b0000100000000110 /
b000100001110001011010101000000000000000000000000 0
b000000000000000000000000000000000000000000000000 1
b00000000 2
b0 3
b0 4
b1 5
b1 6
b0 7
b0 8
b10101110 9
b0 :
b0 ;
b1 <
b1 =
b0 >
b1 ?
b0 @
b1100 A
b0 B
b0000 C
b0 D
b1 E
b0 F
b1 G
b1 H
b0 I
b0 J
b11111111 K
b0 L
b1 M
b0 N
b1 O
b0 P
b0 Q
b00000000 R
b0 S
b0 T
b0 U
b1 V
b0 W
b0 X
b0000000000000000 Y
b000000000000000000000000000000000000000000000000 Z
b000000000000000000000000000000000000000000000000 [
b00000000 \
b0 ]
b0 ^
b0 _
b1 `
b0 a
b0 b
b0 c
b0 d
b00000000000000000000000000000000 e
b000000000000000000000000000000000000000000000000 f
b0 g
b0 h
b0 i
b0 j
b00000000 k
b0 l
b0 m
b1 n
b0 o
#11
b00001001 !
b10110000 "
b0 #
b0 $
b0 %
b0 &
b0 '
b0 (
b00000000000000000000000000000000 )
b000000000000000000000000000000000000000000000000 *
b0 +
b1 ,
b0 -
b0 .
b0000100000000110 /
b000100001110001011010101000000000000000000000000 0
b000000000000000000000000000000000000000000000000 1
b00000000 2
b0 3
b0 4
b1 5
b1 6
b0 7
b0 8
b10101110 9
b0 :
b0 ;
b1 <
b1 =
b0 >
b1 ?
b0 @
b1100 A
b0 B
b0000 C
b0 D
b1 E
b0 F
b1 G
b1 H
b0 I
b0 J
b11111111 K
b0 L
b1 M
b0 N
b1 O
b0 P
b0 Q
b00000000 R
b0 S
b0 T
b0 U
b1 V
b0 W
b0 X
b0000000000000000 Y
b000000000000000000000000000000000000000000000000 Z
b000000000000000000000000000000000000000000000000 [
b00000000 \
b0 ]
b0 ^
b0 _
b1 `
b0 a
b0 b
b0 c
b0 d
b00000000000000000000000000000000 e
b000000000000000000000000000000000000000000000000 f
b0 g
b0 h
b0 i
b0 j
b00000000 k
b0 l
b0 m
b0 n
b0 o
#12
b00001001 !
b10110000 "
b0 #
b0 $
b0 %
b0 &
b0 '
b0 (
b00000000000000000000000000000000 )
b000000000000000000000000000000000000000000000000 *
b0 +
b1 ,
b0 -
b0 .
b0000100000000110 /
b000100001110001011010101000000000000000000000000 0
b000000000000000000000000000000000000000000000000 1
b00000000 2
b0 3
b0 4
b1 5
b1 6
b0 7
b0 8
b10101110 9
b0 :
b0 ;
b1 <
b1 =
b0 >
b1 ?
b0 @
b1100 A
b0 B
b0000 C
b0 D
b1 E
b0 F
b1 G
b1 H
b0 I
b0 J
b11111111 K
b0 L
b1 M
b0 N
b1 O
b0 P
b0 Q
b00000000 R
b0 S
b0 T
b0 U
b1 V
b0 W
b0 X
b0000000000000000 Y
b000000000000000000000000000000000000000000000000 Z
b000000000000000000000000000000000000000000000000 [
b00000000 \
b0 ]
b0 ^
b0 _
b1 `
b0 a
b0 b
b0 c
b0 d
b00000000000000000000000000000000 e
b000000000000000000000000000000000000000000000000 f
b0 g
b0 h
b0 i
b0 j
b00000000 k
b0 l
b0 m
b1 n
b0 o
#13
b00001001 !
b10110000 "
b0 #
b0 $
b0 %
b0 &
b0 '
b0 (
b00000000000000000000000000000000 )
b000000000000000000000000000000000000000000000000 *
b0 +
b1 ,
b0 -
b0 .
b0000100000000110 /
b000100001110001011010101000000000000000000000000 0
b000000000000000000000000000000000000000000000000 1
b00000000 2
b0 3
b0 4
b1 5
b1 6
b0 7
b0 8
b10101110 9
b0 :
b0 ;
b1 <
b1 =
b0 >
b1 ?
b0 @
b1100 A
b0 B
b0000 C
b0 D
b1 E
b0 F
b1 G
b1 H
b0 I
b0 J
b11111111 K
b0 L
b1 M
b0 N
b1 O
b0 P
b0 Q
b00000000 R
b0 S
b0 T
b0 U
b1 V
b0 W
b0 X
b0000000000000000 Y
b000000000000000000000000000000000000000000000000 Z
b000000000000000000000000000000000000000000000000 [
b00000000 \
b0 ]
b0 ^
b0 _
b1 `
b0 a
b0 b
b0 c
b0 d
b00000000000000000000000000000000 e
b000000000000000000000000000000000000000000000000 f
b0 g
b0 h
b0 i
b0 j
b00000000 k
b0 l
b0 m
b0 n
b0 o
#14
b00001001 !
b10110000 "
b0 #
b0 $
b0 %
b0 &
b0 '
b0 (
b00000000000000000000000000000000 )
b000000000000000000000000000000000000000000000000 *
b0 +
b1 ,
b0 -
b0 .
b0000100000000110 /
b000100001110001011010101000000000000000000000000 0
b000000000000000000000000000000000000000000000000 1
b00000000 2
b0 3
b0 4
b1 5
b1 6
b0 7
b0 8
b10101110 9
b0 :
b0 ;
b1 <
b1 =
b0 >
b1 ?
b0 @
b0100 A
b0 B
b0000 C
b0 D
b1 E
b0 F
b1 G
b1 H
b0 I
b0 J
b11111111 K
b0 L
b1 M
b0 N
b1 O
b0 P
b0 Q
b00000000 R
b0 S
b0 T
b0 U
b1 V
b0 W
b0 X
b0000000000000000 Y
b000000000000000000000000000000000000000000000000 Z
b000000000000000000000000000000000000000000000000 [
b00000000 \
b0 ]
b0 ^
b0 _
b1 `
b0 a
b0 b
b0 c
b0 d
b00000000000000000000000000000000 e
b000000000000000000000000000000000000000000000000 f
b0 g
b0 h
b0 i
b0 j
b00000000 k
b0 l
b0 m
b1 n
b0 o
#15
b00001001 !
b10110000 "
b0 #
b0 $
b0 %
b0 &
b0 '
b0 (
b00000000000000000000000000000000 )
b000000000000000000000000000000000000000000000000 *
b0 +
b1 ,
b0 -
b0 .
b0000100000000110 /
b000100001110001011010101000000000000000000000000 0
b000000000000000000000000000000000000000000000000 1
b00000000 2
b0 3
b0 4
b1 5
b1 6
b0 7
b0 8
b10101110 9
b0 :
b0 ;
b1 <
b1 =
b0 >
b1 ?
b0 @
b0100 A
b0 B
b0000 C
b0 D
b1 E
b0 F
b1 G
b1 H
b0 I
b0 J
b11111111 K
b0 L
b1 M
b0 N
b1 O
b0 P
b0 Q
b00000000 R
b0 S
b0 T
b0 U
b1 V
b0 W
b0 X
b0000000000000000 Y
b000000000000000000000000000000000000000000000000 Z
b000000000000000000000000000000000000000000000000 [
b00000000 \
b0 ]
b0 ^
b0 _
b1 `
b0 a
b0 b
b0 c
b0 d
b00000000000000000000000000000000 e
b000000000000000000000000000000000000000000000000 f
b0 g
b0 h
b0 i
b0 j
b00000000 k
b0 l
b0 m
b0 n
b0 o
#16
b00001001 !
b10110000 "
b0 #
b0 $
b0 %
b0 &
b0 '
b0 (
b00000000000000000000000000000000 )
b000000000000000000000000000000000000000000000000 *
b0 +
b1 ,
b0 -
b0 .
b0000100000000110 /
b000100001110001011010101000000000000000000000000 0
b000000000000000000000000000000000000000000000000 1
b00000000 2
b0 3
b0 4
b1 5
b1 6
b0 7
b0 8
b10101110 9
b0 :
b0 ;
b1 <
b1 =
b0 >
b1 ?
b0 @
b0100 A
b0 B
b0000 C
b0 D
b1 E
b0 F
b1 G
b1 H
b0 I
b0 J
b11111111 K
b0 L
b1 M
b0 N
b1 O
b0 P
b0 Q
b00000000 R
b0 S
b0 T
b0 U
b1 V
b0 W
b0 X
b0000000000000000 Y
b000000000000000000000000000000000000000000000000 Z
b000000000000000000000000000000000000000000000000 [
b00000000 \
b0 ]
b0 ^
b0 _
b1 `
b0 a
b0 b
b0 c
b0 d
b00000000000000000000000000000000 e
b000000000000000000000000000000000000000000000000 f
b0 g
b0 h
b0 i
b0 j
b00000000 k
b0 l
b0 m
b1 n
b0 o
#17
b00001001 !
b10110000 "
b0 #
b0 $
b0 %
b0 &
b0 '
b0 (
b00000000000000000000000000000000 )
b000000000000000000000000000000000000000000000000 *
b0 +
b1 ,
b0 -
b0 .
b0000100000000110 /
b000100001110001011010101000000000000000000000000 0
b000000000000000000000000000000000000000000000000 1
b00000000 2
b0 3
b0 4
b1 5
b1 6
b0 7
b0 8
b10101110 9
b0 :
b0 ;
b1 <
b1 =
b0 >
b1 ?
b0 @
b0100 A
b0 B
b0000 C
b0 D
b1 E
b0 F
b1 G
b1 H
b0 I
b0 J
b11111111 K
b0 L
b1 M
b0 N
b1 O
b0 P
b0 Q
b00000000 R
b0 S
b0 T
b0 U
b1 V
b0 W
b0 X
b0000000000000000 Y
b000000000000000000000000000000000000000000000000 Z
b000000000000000000000000000000000000000000000000 [
b00000000 \
b0 ]
b0 ^
b0 _
b1 `
b0 a
b0 b
b0 c
b0 d
b00000000000000000000000000000000 e
b000000000000000000000000000000000000000000000000 f
b0 g
b0 h
b0 i
b0 j
b00000000 k
b0 l
b0 m
b0 n
b0 o
#18
b00001010 !
b10110001 "
b0 #
b0 $
b0 %
b0 &
b0 '
b0 (
b00000000000000000000000000000000 )
b000000000000000000000000000000000000000000000000 *
b0 +
b1 ,
b0 -
b0 .
b0000100000000110 /
b000100001110001011010101000000000000000000000000 0
b000000000000000000000000000000000000000000000000 1
b00000000 2
b0 3
b0 4
b0 5
b1 6
b0 7
b0 8
b10101100 9
b0 :
b0 ;
b1 <
b1 =
b0 >
b1 ?
b0 @
b0100 A
b0 B
b0000 C
b0 D
b1 E
b0 F
b0 G
b1 H
b0 I
b0 J
b11111111 K
b0 L
b1 M
b0 N
b1 O
b0 P
b0 Q
b00000000 R
b0 S
b0 T
b0 U
b1 V
b0 W
b0 X
b0000000000000000 Y
b000000000000000000000000000000000000000000000000 Z
b000000000000000000000000000000000000000000000000 [
b00000000 \
b0 ]
b0 ^
b0 _
b1 `
b0 a
b0 b
b0 c
b0 d
b00000000000000000000000000000000 e
b000000000000000000000000000000000000000000000000 f
b0 g
b0 h
b0 i
b0 j
b00000000 k
b0 l
b0 m
b1 n
b0 o
#19
b00001010 !
b10110001 "
b0 #
b0 $
b0 %
b0 &
b0 '
b0 (
b00000000000000000000000000000000 )
b000000000000000000000000000000000000000000000000 *
b0 +
b1 ,
b0 -
b0 .
b0000100000000110 /
b000100001110001011010101000000000000000000000000 0
b000000000000000000000000000000000000000000000000 1
b00000000 2
b0 3
b0 4
b0 5
b1 6
b0 7
b0 8
b10101100 9
b0 :
b0 ;
b1 <
b1 =
b0 >
b1 ?
b0 @
b0100 A
b0 B
b0000 C
b0 D
b1 E
b0 F
b0 G
b1 H
b0 I
b0 J
b11111111 K
b0 L
b1 M
b0 N
b1 O
b0 P
b0 Q
b00000000 R
b0 S
b0 T
b0 U
b1 V
b0 W
b0 X
b0000000000000000 Y
b000000000000000000000000000000000000000000000000 Z
b000000000000000000000000000000000000000000000000 [
b00000000 \
b0 ]
b0 ^
b0 _
b1 `
b0 a
b0 b
b0 c
b0 d
b00000000000000000000000000000000 e
b000000000000000000000000000000000000000000000000 f
b0 g
b0 h
b0 i
b0 j
b00000000 k
b0 l
b0 m
b0 n
b0 o
