litex_boards/targets/vcd-dumps/deca-ethernet-ping.vcd
$date
	2021-09-15 19:11
$end
$timescale 4000ps $end
$scope 1ps $end
$var wire 8 ! main_ethphy_rx_cnt $end
$var wire 8 " main_ethphy_tx_cnt $end
$var wire 1 # main_basesoc_ethcore_arp_rx_sink_sink_valid $end
$var wire 1 $ main_basesoc_ethcore_arp_rx_sink_sink_ready $end
$var wire 1 % main_basesoc_ethcore_arp_rx_sink_sink_first $end
$var wire 1 & main_basesoc_ethcore_arp_rx_sink_sink_last $end
$var wire 16 ' main_basesoc_ethcore_arp_rx_sink_sink_payload_ethernet_type $end
$var wire 48 ( main_basesoc_ethcore_arp_rx_sink_sink_payload_sender_mac $end
$var wire 48 ) main_basesoc_ethcore_arp_rx_sink_sink_payload_target_mac $end
$var wire 8 * main_basesoc_ethcore_arp_rx_sink_sink_payload_data $end
$var wire 1 + main_basesoc_ethcore_arp_rx_sink_sink_payload_last_be $end
$var wire 1 , main_basesoc_ethcore_arp_rx_sink_sink_payload_error $end
$var wire 1 - main_basesoc_ethcore_arp_tx_sink_sink_valid $end
$var wire 1 . main_basesoc_ethcore_arp_tx_sink_sink_ready $end
$var wire 1 / main_basesoc_ethcore_arp_tx_sink_sink_first $end
$var wire 1 0 main_basesoc_ethcore_arp_tx_sink_sink_last $end
$var wire 1 1 main_basesoc_ethcore_arp_tx_sink_sink_payload_reply $end
$var wire 1 2 main_basesoc_ethcore_arp_tx_sink_sink_payload_request $end
$var wire 32 3 main_basesoc_ethcore_arp_tx_sink_sink_payload_ip_address $end
$var wire 48 4 main_basesoc_ethcore_arp_tx_sink_sink_payload_mac_address $end
$var wire 1 5 main_ethphy_liteethphymiitx_sink_sink_valid $end
$var wire 1 6 main_ethphy_liteethphymiitx_sink_sink_ready $end
$var wire 1 7 main_ethphy_liteethphymiitx_sink_sink_first $end
$var wire 1 8 main_ethphy_liteethphymiitx_sink_sink_last $end
$var wire 8 9 main_ethphy_liteethphymiitx_sink_sink_payload_data $end
$var wire 1 : main_ethphy_liteethphymiitx_sink_sink_payload_last_be $end
$var wire 1 ; main_ethphy_liteethphymiitx_sink_sink_payload_error $end
$var wire 1 < main_basesoc_ethcore_arp_rx_source_source_valid $end
$var wire 1 = main_basesoc_ethcore_arp_rx_source_source_ready $end
$var wire 1 > main_basesoc_ethcore_arp_rx_source_source_first $end
$var wire 1 ? main_basesoc_ethcore_arp_rx_source_source_last $end
$var wire 1 @ main_basesoc_ethcore_arp_rx_source_source_payload_reply $end
$var wire 1 A main_basesoc_ethcore_arp_rx_source_source_payload_request $end
$var wire 32 B main_basesoc_ethcore_arp_rx_source_source_payload_ip_address $end
$var wire 48 C main_basesoc_ethcore_arp_rx_source_source_payload_mac_address $end
$var wire 1 D main_basesoc_ethcore_arp_tx_source_source_valid $end
$var wire 1 E main_basesoc_ethcore_arp_tx_source_source_ready $end
$var wire 1 F main_basesoc_ethcore_arp_tx_source_source_first $end
$var wire 1 G main_basesoc_ethcore_arp_tx_source_source_last $end
$var wire 16 H main_basesoc_ethcore_arp_tx_source_source_payload_ethernet_type $end
$var wire 48 I main_basesoc_ethcore_arp_tx_source_source_payload_sender_mac $end
$var wire 48 J main_basesoc_ethcore_arp_tx_source_source_payload_target_mac $end
$var wire 8 K main_basesoc_ethcore_arp_tx_source_source_payload_data $end
$var wire 1 L main_basesoc_ethcore_arp_tx_source_source_payload_last_be $end
$var wire 1 M main_basesoc_ethcore_arp_tx_source_source_payload_error $end
$var wire 1 N main_ethphy_liteethphymiirx_source_source_valid $end
$var wire 1 O main_ethphy_liteethphymiirx_source_source_ready $end
$var wire 1 P main_ethphy_liteethphymiirx_source_source_first $end
$var wire 1 Q main_ethphy_liteethphymiirx_source_source_last $end
$var wire 8 R main_ethphy_liteethphymiirx_source_source_payload_data $end
$var wire 1 S main_ethphy_liteethphymiirx_source_source_payload_last_be $end
$var wire 1 T main_ethphy_liteethphymiirx_source_source_payload_error $end
$var wire 1 U eth_rst_n $end
$var wire 1 V eth_mdio $end
$var wire 1 W eth_mdc $end
$var wire 1 X eth_rx_dv $end
$var wire 1 Y eth_rx_er $end
$var wire 4 Z eth_rx_data $end
$var wire 1 [ eth_tx_en $end
$var wire 4 \ eth_tx_data $end
$var wire 1 ] eth_col $end
$var wire 1 ^ eth_crs $end
$var wire 1 _ eth_pcf_en $end
$var wire 1 ` scope_clk $end
$var wire 1 a scope_trig $end
$unscope  $end
$enddefinitions  $end
$dumpvars
bxxxxxxxx !
bxxxxxxxx "
bx #
bx $
bx %
bx &
bxxxxxxxxxxxxxxxx '
bxxxxxxxxxxxxxxxxxxxxxxxxxxxxxxxxxxxxxxxxxxxxxxxx (
bxxxxxxxxxxxxxxxxxxxxxxxxxxxxxxxxxxxxxxxxxxxxxxxx )
bxxxxxxxx *
bx +
bx ,
bx -
bx .
bx /
bx 0
bx 1
bx 2
bxxxxxxxxxxxxxxxxxxxxxxxxxxxxxxxx 3
bxxxxxxxxxxxxxxxxxxxxxxxxxxxxxxxxxxxxxxxxxxxxxxxx 4
bx 5
bx 6
bx 7
bx 8
bxxxxxxxx 9
bx :
bx ;
bx <
bx =
bx >
bx ?
bx @
bx A
bxxxxxxxxxxxxxxxxxxxxxxxxxxxxxxxx B
bxxxxxxxxxxxxxxxxxxxxxxxxxxxxxxxxxxxxxxxxxxxxxxxx C
bx D
bx E
bx F
bx G
bxxxxxxxxxxxxxxxx H
bxxxxxxxxxxxxxxxxxxxxxxxxxxxxxxxxxxxxxxxxxxxxxxxx I
bxxxxxxxxxxxxxxxxxxxxxxxxxxxxxxxxxxxxxxxxxxxxxxxx J
bxxxxxxxx K
bx L
bx M
bx N
bx O
bx P
bx Q
bxxxxxxxx R
bx S
bx T
bx U
bx V
bx W
bx X
bx Y
bxxxx Z
bx [
bxxxx \
bx ]
bx ^
bx _
bx `
bx a
$end
#0
b00010110 !
b10011010 "
b0 #
b1 $
b0 %
b0 &
b0000000000000000 '
b000000000000000000000000000000000000000000000000 (
b000000000000000000000000000000000000000000000000 )
b00000000 *
b0 +
b0 ,
b0 -
b1 .
b0 /
b0 0
b0 1
b0 2
b00000000000000000000000000000000 3
b000000000000000000000000000000000000000000000000 4
b0 5
b0 6
b0 7
b0 8
b00000000 9
b0 :
b0 ;
b0 <
b0 =
b0 >
b0 ?
b0 @
b0 A
b11000000101010000010101101100100 B
b100011001010111001001100111101011000000100001100 C
b0 D
b1 E
b0 F
b0 G
b0000100000000110 H
b000100001110001011010101000000000000000000000000 I
b000000000000000000000000000000000000000000000000 J
b00000000 K
b0 L
b0 M
b1 N
b1 O
b0 P
b0 Q
b10001100 R
b0 S
b0 T
b1 U
b1 V
b0 W
b1 X
b0 Y
b1010 Z
b0 [
b0000 \
b0 ]
b1 ^
b0 _
b1 `
b0 a
#1
b00010110 !
b10011010 "
b0 #
b1 $
b0 %
b0 &
b0000000000000000 '
b000000000000000000000000000000000000000000000000 (
b000000000000000000000000000000000000000000000000 )
b00000000 *
b0 +
b0 ,
b0 -
b1 .
b0 /
b0 0
b0 1
b0 2
b00000000000000000000000000000000 3
b000000000000000000000000000000000000000000000000 4
b0 5
b0 6
b0 7
b0 8
b00000000 9
b0 :
b0 ;
b0 <
b0 =
b0 >
b0 ?
b0 @
b0 A
b11000000101010000010101101100100 B
b100011001010111001001100111101011000000100001100 C
b0 D
b1 E
b0 F
b0 G
b0000100000000110 H
b000100001110001011010101000000000000000000000000 I
b000000000000000000000000000000000000000000000000 J
b00000000 K
b0 L
b0 M
b1 N
b1 O
b0 P
b0 Q
b10001100 R
b0 S
b0 T
b1 U
b1 V
b0 W
b1 X
b0 Y
b1010 Z
b0 [
b0000 \
b0 ]
b1 ^
b0 _
b0 `
b0 a
#2
b00010111 !
b10011010 "
b0 #
b1 $
b0 %
b0 &
b0000000000000000 '
b000000000000000000000000000000000000000000000000 (
b000000000000000000000000000000000000000000000000 )
b00000000 *
b0 +
b0 ,
b0 -
b1 .
b0 /
b0 0
b0 1
b0 2
b00000000000000000000000000000000 3
b000000000000000000000000000000000000000000000000 4
b0 5
b0 6
b0 7
b0 8
b00000000 9
b0 :
b0 ;
b0 <
b0 =
b0 >
b0 ?
b0 @
b0 A
b11000000101010000010101101100100 B
b100011001010111001001100111101011000000100001100 C
b0 D
b1 E
b0 F
b0 G
b0000100000000110 H
b000100001110001011010101000000000000000000000000 I
b000000000000000000000000000000000000000000000000 J
b00000000 K
b0 L
b0 M
b0 N
b1 O
b0 P
b0 Q
b10001110 R
b0 S
b0 T
b1 U
b1 V
b0 W
b1 X
b0 Y
b1010 Z
b0 [
b0000 \
b0 ]
b1 ^
b0 _
b1 `
b0 a
#3
b00010111 !
b10011010 "
b0 #
b1 $
b0 %
b0 &
b0000000000000000 '
b000000000000000000000000000000000000000000000000 (
b000000000000000000000000000000000000000000000000 )
b00000000 *
b0 +
b0 ,
b0 -
b1 .
b0 /
b0 0
b0 1
b0 2
b00000000000000000000000000000000 3
b000000000000000000000000000000000000000000000000 4
b0 5
b0 6
b0 7
b0 8
b00000000 9
b0 :
b0 ;
b0 <
b0 =
b0 >
b0 ?
b0 @
b0 A
b11000000101010000010101101100100 B
b100011001010111001001100111101011000000100001100 C
b0 D
b1 E
b0 F
b0 G
b0000100000000110 H
b000100001110001011010101000000000000000000000000 I
b000000000000000000000000000000000000000000000000 J
b00000000 K
b0 L
b0 M
b0 N
b1 O
b0 P
b0 Q
b10001110 R
b0 S
b0 T
b1 U
b1 V
b0 W
b1 X
b0 Y
b1010 Z
b0 [
b0000 \
b0 ]
b1 ^
b0 _
b0 `
b0 a
#4
b00010111 !
b10011011 "
b0 #
b1 $
b0 %
b0 &
b0000000000000000 '
b000000000000000000000000000000000000000000000000 (
b000000000000000000000000000000000000000000000000 )
b00000000 *
b0 +
b0 ,
b0 -
b1 .
b0 /
b0 0
b0 1
b0 2
b00000000000000000000000000000000 3
b000000000000000000000000000000000000000000000000 4
b0 5
b0 6
b0 7
b0 8
b00000000 9
b0 :
b0 ;
b0 <
b0 =
b0 >
b0 ?
b0 @
b0 A
b11000000101010000010101101100100 B
b100011001010111001001100111101011000000100001100 C
b0 D
b1 E
b0 F
b0 G
b0000100000000110 H
b000100001110001011010101000000000000000000000000 I
b000000000000000000000000000000000000000000000000 J
b00000000 K
b0 L
b0 M
b0 N
b1 O
b0 P
b0 Q
b10001110 R
b0 S
b0 T
b1 U
b1 V
b0 W
b1 X
b0 Y
b1010 Z
b0 [
b0000 \
b0 ]
b1 ^
b0 _
b1 `
b0 a
#5
b00010111 !
b10011011 "
b0 #
b1 $
b0 %
b0 &
b0000000000000000 '
b000000000000000000000000000000000000000000000000 (
b000000000000000000000000000000000000000000000000 )
b00000000 *
b0 +
b0 ,
b0 -
b1 .
b0 /
b0 0
b0 1
b0 2
b00000000000000000000000000000000 3
b000000000000000000000000000000000000000000000000 4
b0 5
b0 6
b0 7
b0 8
b00000000 9
b0 :
b0 ;
b0 <
b0 =
b0 >
b0 ?
b0 @
b0 A
b11000000101010000010101101100100 B
b100011001010111001001100111101011000000100001100 C
b0 D
b1 E
b0 F
b0 G
b0000100000000110 H
b000100001110001011010101000000000000000000000000 I
b000000000000000000000000000000000000000000000000 J
b00000000 K
b0 L
b0 M
b0 N
b1 O
b0 P
b0 Q
b10001110 R
b0 S
b0 T
b1 U
b1 V
b0 W
b1 X
b0 Y
b1010 Z
b0 [
b0000 \
b0 ]
b1 ^
b0 _
b0 `
b0 a
#6
b00010111 !
b10011011 "
b0 #
b1 $
b0 %
b0 &
b0000000000000000 '
b000000000000000000000000000000000000000000000000 (
b000000000000000000000000000000000000000000000000 )
b00000000 *
b0 +
b0 ,
b0 -
b1 .
b0 /
b0 0
b0 1
b0 2
b00000000000000000000000000000000 3
b000000000000000000000000000000000000000000000000 4
b0 5
b0 6
b0 7
b0 8
b00000000 9
b0 :
b0 ;
b0 <
b0 =
b0 >
b0 ?
b0 @
b0 A
b11000000101010000010101101100100 B
b100011001010111001001100111101011000000100001100 C
b0 D
b1 E
b0 F
b0 G
b0000100000000110 H
b000100001110001011010101000000000000000000000000 I
b000000000000000000000000000000000000000000000000 J
b00000000 K
b0 L
b0 M
b0 N
b1 O
b0 P
b0 Q
b10001110 R
b0 S
b0 T
b1 U
b1 V
b0 W
b1 X
b0 Y
b1100 Z
b0 [
b0000 \
b0 ]
b1 ^
b0 _
b1 `
b0 a
#7
b00010111 !
b10011011 "
b0 #
b1 $
b0 %
b0 &
b0000000000000000 '
b000000000000000000000000000000000000000000000000 (
b000000000000000000000000000000000000000000000000 )
b00000000 *
b0 +
b0 ,
b0 -
b1 .
b0 /
b0 0
b0 1
b0 2
b00000000000000000000000000000000 3
b000000000000000000000000000000000000000000000000 4
b0 5
b0 6
b0 7
b0 8
b00000000 9
b0 :
b0 ;
b0 <
b0 =
b0 >
b0 ?
b0 @
b0 A
b11000000101010000010101101100100 B
b100011001010111001001100111101011000000100001100 C
b0 D
b1 E
b0 F
b0 G
b0000100000000110 H
b000100001110001011010101000000000000000000000000 I
b000000000000000000000000000000000000000000000000 J
b00000000 K
b0 L
b0 M
b0 N
b1 O
b0 P
b0 Q
b10001110 R
b0 S
b0 T
b1 U
b1 V
b0 W
b1 X
b0 Y
b1100 Z
b0 [
b0000 \
b0 ]
b1 ^
b0 _
b0 `
b0 a
#8
b00010111 !
b10011011 "
b0 #
b1 $
b0 %
b0 &
b0000000000000000 '
b000000000000000000000000000000000000000000000000 (
b000000000000000000000000000000000000000000000000 )
b00000000 *
b0 +
b0 ,
b0 -
b1 .
b0 /
b0 0
b0 1
b0 2
b00000000000000000000000000000000 3
b000000000000000000000000000000000000000000000000 4
b0 5
b0 6
b0 7
b0 8
b00000000 9
b0 :
b0 ;
b0 <
b0 =
b0 >
b0 ?
b0 @
b0 A
b11000000101010000010101101100100 B
b100011001010111001001100111101011000000100001100 C
b0 D
b1 E
b0 F
b0 G
b0000100000000110 H
b000100001110001011010101000000000000000000000000 I
b000000000000000000000000000000000000000000000000 J
b00000000 K
b0 L
b0 M
b0 N
b1 O
b0 P
b0 Q
b10001110 R
b0 S
b0 T
b1 U
b1 V
b0 W
b1 X
b0 Y
b1100 Z
b0 [
b0000 \
b0 ]
b1 ^
b0 _
b1 `
b0 a
#9
b00010111 !
b10011011 "
b0 #
b1 $
b0 %
b0 &
b0000000000000000 '
b000000000000000000000000000000000000000000000000 (
b000000000000000000000000000000000000000000000000 )
b00000000 *
b0 +
b0 ,
b0 -
b1 .
b0 /
b0 0
b0 1
b0 2
b00000000000000000000000000000000 3
b000000000000000000000000000000000000000000000000 4
b0 5
b0 6
b0 7
b0 8
b00000000 9
b0 :
b0 ;
b0 <
b0 =
b0 >
b0 ?
b0 @
b0 A
b11000000101010000010101101100100 B
b100011001010111001001100111101011000000100001100 C
b0 D
b1 E
b0 F
b0 G
b0000100000000110 H
b000100001110001011010101000000000000000000000000 I
b000000000000000000000000000000000000000000000000 J
b00000000 K
b0 L
b0 M
b0 N
b1 O
b0 P
b0 Q
b10001110 R
b0 S
b0 T
b1 U
b1 V
b0 W
b1 X
b0 Y
b1100 Z
b0 [
b0000 \
b0 ]
b1 ^
b0 _
b0 `
b0 a
#10
b00011000 !
b10011011 "
b0 #
b1 $
b0 %
b0 &
b0000000000000000 '
b000000000000000000000000000000000000000000000000 (
b000000000000000000000000000000000000000000000000 )
b00000000 *
b0 +
b0 ,
b0 -
b1 .
b0 /
b0 0
b0 1
b0 2
b00000000000000000000000000000000 3
b000000000000000000000000000000000000000000000000 4
b0 5
b0 6
b0 7
b0 8
b00000000 9
b0 :
b0 ;
b0 <
b0 =
b0 >
b0 ?
b0 @
b0 A
b11000000101010000010101101100100 B
b100011001010111001001100111101011000000100001100 C
b0 D
b1 E
b0 F
b0 G
b0000100000000110 H
b000100001110001011010101000000000000000000000000 I
b000000000000000000000000000000000000000000000000 J
b00000000 K
b0 L
b0 M
b1 N
b1 O
b0 P
b0 Q
b10101110 R
b0 S
b0 T
b1 U
b1 V
b0 W
b1 X
b0 Y
b1100 Z
b0 [
b0000 \
b0 ]
b1 ^
b0 _
b1 `
b0 a
#11
b00011000 !
b10011011 "
b0 #
b1 $
b0 %
b0 &
b0000000000000000 '
b000000000000000000000000000000000000000000000000 (
b000000000000000000000000000000000000000000000000 )
b00000000 *
b0 +
b0 ,
b0 -
b1 .
b0 /
b0 0
b0 1
b0 2
b00000000000000000000000000000000 3
b000000000000000000000000000000000000000000000000 4
b0 5
b0 6
b0 7
b0 8
b00000000 9
b0 :
b0 ;
b0 <
b0 =
b0 >
b0 ?
b0 @
b0 A
b11000000101010000010101101100100 B
b100011001010111001001100111101011000000100001100 C
b0 D
b1 E
b0 F
b0 G
b0000100000000110 H
b000100001110001011010101000000000000000000000000 I
b000000000000000000000000000000000000000000000000 J
b00000000 K
b0 L
b0 M
b1 N
b1 O
b0 P
b0 Q
b10101110 R
b0 S
b0 T
b1 U
b1 V
b0 W
b1 X
b0 Y
b1100 Z
b0 [
b0000 \
b0 ]
b1 ^
b0 _
b0 `
b0 a
#12
b00011000 !
b10011100 "
b0 #
b1 $
b0 %
b0 &
b0000000000000000 '
b000000000000000000000000000000000000000000000000 (
b000000000000000000000000000000000000000000000000 )
b00000000 *
b0 +
b0 ,
b0 -
b1 .
b0 /
b0 0
b0 1
b0 2
b00000000000000000000000000000000 3
b000000000000000000000000000000000000000000000000 4
b0 5
b0 6
b0 7
b0 8
b00000000 9
b0 :
b0 ;
b0 <
b0 =
b0 >
b0 ?
b0 @
b0 A
b11000000101010000010101101100100 B
b100011001010111001001100111101011000000100001100 C
b0 D
b1 E
b0 F
b0 G
b0000100000000110 H
b000100001110001011010101000000000000000000000000 I
b000000000000000000000000000000000000000000000000 J
b00000000 K
b0 L
b0 M
b1 N
b1 O
b0 P
b0 Q
b10101110 R
b0 S
b0 T
b1 U
b1 V
b0 W
b1 X
b0 Y
b1100 Z
b0 [
b0000 \
b0 ]
b1 ^
b0 _
b1 `
b0 a
#13
b00011000 !
b10011100 "
b0 #
b1 $
b0 %
b0 &
b0000000000000000 '
b000000000000000000000000000000000000000000000000 (
b000000000000000000000000000000000000000000000000 )
b00000000 *
b0 +
b0 ,
b0 -
b1 .
b0 /
b0 0
b0 1
b0 2
b00000000000000000000000000000000 3
b000000000000000000000000000000000000000000000000 4
b0 5
b0 6
b0 7
b0 8
b00000000 9
b0 :
b0 ;
b0 <
b0 =
b0 >
b0 ?
b0 @
b0 A
b11000000101010000010101101100100 B
b100011001010111001001100111101011000000100001100 C
b0 D
b1 E
b0 F
b0 G
b0000100000000110 H
b000100001110001011010101000000000000000000000000 I
b000000000000000000000000000000000000000000000000 J
b00000000 K
b0 L
b0 M
b1 N
b1 O
b0 P
b0 Q
b10101110 R
b0 S
b0 T
b1 U
b1 V
b0 W
b1 X
b0 Y
b1100 Z
b0 [
b0000 \
b0 ]
b1 ^
b0 _
b0 `
b0 a
#14
b00011000 !
b10011100 "
b0 #
b1 $
b0 %
b0 &
b0000000000000000 '
b000000000000000000000000000000000000000000000000 (
b000000000000000000000000000000000000000000000000 )
b00000000 *
b0 +
b0 ,
b0 -
b1 .
b0 /
b0 0
b0 1
b0 2
b00000000000000000000000000000000 3
b000000000000000000000000000000000000000000000000 4
b0 5
b0 6
b0 7
b0 8
b00000000 9
b0 :
b0 ;
b0 <
b0 =
b0 >
b0 ?
b0 @
b0 A
b11000000101010000010101101100100 B
b100011001010111001001100111101011000000100001100 C
b0 D
b1 E
b0 F
b0 G
b0000100000000110 H
b000100001110001011010101000000000000000000000000 I
b000000000000000000000000000000000000000000000000 J
b00000000 K
b0 L
b0 M
b1 N
b1 O
b0 P
b0 Q
b10101110 R
b0 S
b0 T
b1 U
b1 V
b0 W
b1 X
b0 Y
b0100 Z
b0 [
b0000 \
b0 ]
b1 ^
b0 _
b1 `
b0 a
#15
b00011000 !
b10011100 "
b0 #
b1 $
b0 %
b0 &
b0000000000000000 '
b000000000000000000000000000000000000000000000000 (
b000000000000000000000000000000000000000000000000 )
b00000000 *
b0 +
b0 ,
b0 -
b1 .
b0 /
b0 0
b0 1
b0 2
b00000000000000000000000000000000 3
b000000000000000000000000000000000000000000000000 4
b0 5
b0 6
b0 7
b0 8
b00000000 9
b0 :
b0 ;
b0 <
b0 =
b0 >
b0 ?
b0 @
b0 A
b11000000101010000010101101100100 B
b100011001010111001001100111101011000000100001100 C
b0 D
b1 E
b0 F
b0 G
b0000100000000110 H
b000100001110001011010101000000000000000000000000 I
b000000000000000000000000000000000000000000000000 J
b00000000 K
b0 L
b0 M
b1 N
b1 O
b0 P
b0 Q
b10101110 R
b0 S
b0 T
b1 U
b1 V
b0 W
b1 X
b0 Y
b0100 Z
b0 [
b0000 \
b0 ]
b1 ^
b0 _
b0 `
b0 a
#16
b00011000 !
b10011100 "
b0 #
b1 $
b0 %
b0 &
b0000000000000000 '
b000000000000000000000000000000000000000000000000 (
b000000000000000000000000000000000000000000000000 )
b00000000 *
b0 +
b0 ,
b0 -
b1 .
b0 /
b0 0
b0 1
b0 2
b00000000000000000000000000000000 3
b000000000000000000000000000000000000000000000000 4
b0 5
b0 6
b0 7
b0 8
b00000000 9
b0 :
b0 ;
b0 <
b0 =
b0 >
b0 ?
b0 @
b0 A
b11000000101010000010101101100100 B
b100011001010111001001100111101011000000100001100 C
b0 D
b1 E
b0 F
b0 G
b0000100000000110 H
b000100001110001011010101000000000000000000000000 I
b000000000000000000000000000000000000000000000000 J
b00000000 K
b0 L
b0 M
b1 N
b1 O
b0 P
b0 Q
b10101110 R
b0 S
b0 T
b1 U
b1 V
b0 W
b1 X
b0 Y
b0100 Z
b0 [
b0000 \
b0 ]
b1 ^
b0 _
b1 `
b0 a
#17
b00011000 !
b10011100 "
b0 #
b1 $
b0 %
b0 &
b0000000000000000 '
b000000000000000000000000000000000000000000000000 (
b000000000000000000000000000000000000000000000000 )
b00000000 *
b0 +
b0 ,
b0 -
b1 .
b0 /
b0 0
b0 1
b0 2
b00000000000000000000000000000000 3
b000000000000000000000000000000000000000000000000 4
b0 5
b0 6
b0 7
b0 8
b00000000 9
b0 :
b0 ;
b0 <
b0 =
b0 >
b0 ?
b0 @
b0 A
b11000000101010000010101101100100 B
b100011001010111001001100111101011000000100001100 C
b0 D
b1 E
b0 F
b0 G
b0000100000000110 H
b000100001110001011010101000000000000000000000000 I
b000000000000000000000000000000000000000000000000 J
b00000000 K
b0 L
b0 M
b1 N
b1 O
b0 P
b0 Q
b10101110 R
b0 S
b0 T
b1 U
b1 V
b0 W
b1 X
b0 Y
b0100 Z
b0 [
b0000 \
b0 ]
b1 ^
b0 _
b0 `
b0 a
#18
b00011001 !
b10011100 "
b0 #
b1 $
b0 %
b0 &
b0000000000000000 '
b000000000000000000000000000000000000000000000000 (
b000000000000000000000000000000000000000000000000 )
b00000000 *
b0 +
b0 ,
b0 -
b1 .
b0 /
b0 0
b0 1
b0 2
b00000000000000000000000000000000 3
b000000000000000000000000000000000000000000000000 4
b0 5
b0 6
b0 7
b0 8
b00000000 9
b0 :
b0 ;
b0 <
b0 =
b0 >
b0 ?
b0 @
b0 A
b11000000101010000010101101100100 B
b100011001010111001001100111101011000000100001100 C
b0 D
b1 E
b0 F
b0 G
b0000100000000110 H
b000100001110001011010101000000000000000000000000 I
b000000000000000000000000000000000000000000000000 J
b00000000 K
b0 L
b0 M
b0 N
b1 O
b0 P
b0 Q
b10101100 R
b0 S
b0 T
b1 U
b1 V
b0 W
b1 X
b0 Y
b0100 Z
b0 [
b0000 \
b0 ]
b1 ^
b0 _
b1 `
b0 a
#19
b00011001 !
b10011100 "
b0 #
b1 $
b0 %
b0 &
b0000000000000000 '
b000000000000000000000000000000000000000000000000 (
b000000000000000000000000000000000000000000000000 )
b00000000 *
b0 +
b0 ,
b0 -
b1 .
b0 /
b0 0
b0 1
b0 2
b00000000000000000000000000000000 3
b000000000000000000000000000000000000000000000000 4
b0 5
b0 6
b0 7
b0 8
b00000000 9
b0 :
b0 ;
b0 <
b0 =
b0 >
b0 ?
b0 @
b0 A
b11000000101010000010101101100100 B
b100011001010111001001100111101011000000100001100 C
b0 D
b1 E
b0 F
b0 G
b0000100000000110 H
b000100001110001011010101000000000000000000000000 I
b000000000000000000000000000000000000000000000000 J
b00000000 K
b0 L
b0 M
b0 N
b1 O
b0 P
b0 Q
b10101100 R
b0 S
b0 T
b1 U
b1 V
b0 W
b1 X
b0 Y
b0100 Z
b0 [
b0000 \
b0 ]
b1 ^
b0 _
b0 `
b0 a
#20
b00011001 !
b10011101 "
b0 #
b1 $
b0 %
b0 &
b0000000000000000 '
b000000000000000000000000000000000000000000000000 (
b000000000000000000000000000000000000000000000000 )
b00000000 *
b0 +
b0 ,
b0 -
b1 .
b0 /
b0 0
b0 1
b0 2
b00000000000000000000000000000000 3
b000000000000000000000000000000000000000000000000 4
b0 5
b0 6
b0 7
b0 8
b00000000 9
b0 :
b0 ;
b0 <
b0 =
b0 >
b0 ?
b0 @
b0 A
b11000000101010000010101101100100 B
b100011001010111001001100111101011000000100001100 C
b0 D
b1 E
b0 F
b0 G
b0000100000000110 H
b000100001110001011010101000000000000000000000000 I
b000000000000000000000000000000000000000000000000 J
b00000000 K
b0 L
b0 M
b0 N
b1 O
b0 P
b0 Q
b10101100 R
b0 S
b0 T
b1 U
b1 V
b0 W
b1 X
b0 Y
b0100 Z
b0 [
b0000 \
b0 ]
b1 ^
b0 _
b1 `
b0 a
#21
b00011001 !
b10011101 "
b0 #
b1 $
b0 %
b0 &
b0000000000000000 '
b000000000000000000000000000000000000000000000000 (
b000000000000000000000000000000000000000000000000 )
b00000000 *
b0 +
b0 ,
b0 -
b1 .
b0 /
b0 0
b0 1
b0 2
b00000000000000000000000000000000 3
b000000000000000000000000000000000000000000000000 4
b0 5
b0 6
b0 7
b0 8
b00000000 9
b0 :
b0 ;
b0 <
b0 =
b0 >
b0 ?
b0 @
b0 A
b11000000101010000010101101100100 B
b100011001010111001001100111101011000000100001100 C
b0 D
b1 E
b0 F
b0 G
b0000100000000110 H
b000100001110001011010101000000000000000000000000 I
b000000000000000000000000000000000000000000000000 J
b00000000 K
b0 L
b0 M
b0 N
b1 O
b0 P
b0 Q
b10101100 R
b0 S
b0 T
b1 U
b1 V
b0 W
b1 X
b0 Y
b0100 Z
b0 [
b0000 \
b0 ]
b1 ^
b0 _
b0 `
b0 a
#22
b00011001 !
b10011101 "
b0 #
b1 $
b0 %
b0 &
b0000000000000000 '
b000000000000000000000000000000000000000000000000 (
b000000000000000000000000000000000000000000000000 )
b00000000 *
b0 +
b0 ,
b0 -
b1 .
b0 /
b0 0
b0 1
b0 2
b00000000000000000000000000000000 3
b000000000000000000000000000000000000000000000000 4
b0 5
b0 6
b0 7
b0 8
b00000000 9
b0 :
b0 ;
b0 <
b0 =
b0 >
b0 ?
b0 @
b0 A
b11000000101010000010101101100100 B
b100011001010111001001100111101011000000100001100 C
b0 D
b1 E
b0 F
b0 G
b0000100000000110 H
b000100001110001011010101000000000000000000000000 I
b000000000000000000000000000000000000000000000000 J
b00000000 K
b0 L
b0 M
b0 N
b1 O
b0 P
b0 Q
b10101100 R
b0 S
b0 T
b1 U
b1 V
b0 W
b1 X
b0 Y
b0101 Z
b0 [
b0000 \
b0 ]
b1 ^
b0 _
b1 `
b0 a
#23
b00011001 !
b10011101 "
b0 #
b1 $
b0 %
b0 &
b0000000000000000 '
b000000000000000000000000000000000000000000000000 (
b000000000000000000000000000000000000000000000000 )
b00000000 *
b0 +
b0 ,
b0 -
b1 .
b0 /
b0 0
b0 1
b0 2
b00000000000000000000000000000000 3
b000000000000000000000000000000000000000000000000 4
b0 5
b0 6
b0 7
b0 8
b00000000 9
b0 :
b0 ;
b0 <
b0 =
b0 >
b0 ?
b0 @
b0 A
b11000000101010000010101101100100 B
b100011001010111001001100111101011000000100001100 C
b0 D
b1 E
b0 F
b0 G
b0000100000000110 H
b000100001110001011010101000000000000000000000000 I
b000000000000000000000000000000000000000000000000 J
b00000000 K
b0 L
b0 M
b0 N
b1 O
b0 P
b0 Q
b10101100 R
b0 S
b0 T
b1 U
b1 V
b0 W
b1 X
b0 Y
b0101 Z
b0 [
b0000 \
b0 ]
b1 ^
b0 _
b0 `
b0 a
#24
b00011001 !
b10011101 "
b0 #
b1 $
b0 %
b0 &
b0000000000000000 '
b000000000000000000000000000000000000000000000000 (
b000000000000000000000000000000000000000000000000 )
b00000000 *
b0 +
b0 ,
b0 -
b1 .
b0 /
b0 0
b0 1
b0 2
b00000000000000000000000000000000 3
b000000000000000000000000000000000000000000000000 4
b0 5
b0 6
b0 7
b0 8
b00000000 9
b0 :
b0 ;
b0 <
b0 =
b0 >
b0 ?
b0 @
b0 A
b11000000101010000010101101100100 B
b100011001010111001001100111101011000000100001100 C
b0 D
b1 E
b0 F
b0 G
b0000100000000110 H
b000100001110001011010101000000000000000000000000 I
b000000000000000000000000000000000000000000000000 J
b00000000 K
b0 L
b0 M
b0 N
b1 O
b0 P
b0 Q
b10101100 R
b0 S
b0 T
b1 U
b1 V
b0 W
b1 X
b0 Y
b0101 Z
b0 [
b0000 \
b0 ]
b1 ^
b0 _
b1 `
b0 a
