litex_boards/targets/vcd-dumps/deca-ethernet-ping-v2-more-sigs.vcd
$date
	2021-09-15 19:25
$end
$timescale 4000ps $end
$scope 1ps $end
$var wire 1 ! main_basesoc_ethcore_arp_rx_source_source_valid $end
$var wire 1 " main_basesoc_ethcore_arp_rx_source_source_ready $end
$var wire 1 # main_basesoc_ethcore_arp_rx_source_source_first $end
$var wire 1 $ main_basesoc_ethcore_arp_rx_source_source_last $end
$var wire 1 % main_basesoc_ethcore_arp_rx_source_source_payload_reply $end
$var wire 1 & main_basesoc_ethcore_arp_rx_source_source_payload_request $end
$var wire 32 ' main_basesoc_ethcore_arp_rx_source_source_payload_ip_address $end
$var wire 48 ( main_basesoc_ethcore_arp_rx_source_source_payload_mac_address $end
$var wire 8 ) main_ethphy_rx_cnt $end
$var wire 8 * main_ethphy_tx_cnt $end
$var wire 1 + main_basesoc_ethcore_arp_tx_source_source_valid $end
$var wire 1 , main_basesoc_ethcore_arp_tx_source_source_ready $end
$var wire 1 - main_basesoc_ethcore_arp_tx_source_source_first $end
$var wire 1 . main_basesoc_ethcore_arp_tx_source_source_last $end
$var wire 16 / main_basesoc_ethcore_arp_tx_source_source_payload_ethernet_type $end
$var wire 48 0 main_basesoc_ethcore_arp_tx_source_source_payload_sender_mac $end
$var wire 48 1 main_basesoc_ethcore_arp_tx_source_source_payload_target_mac $end
$var wire 8 2 main_basesoc_ethcore_arp_tx_source_source_payload_data $end
$var wire 1 3 main_basesoc_ethcore_arp_tx_source_source_payload_last_be $end
$var wire 1 4 main_basesoc_ethcore_arp_tx_source_source_payload_error $end
$var wire 1 5 main_ethphy_liteethphymiirx_source_source_valid $end
$var wire 1 6 main_ethphy_liteethphymiirx_source_source_ready $end
$var wire 1 7 main_ethphy_liteethphymiirx_source_source_first $end
$var wire 1 8 main_ethphy_liteethphymiirx_source_source_last $end
$var wire 8 9 main_ethphy_liteethphymiirx_source_source_payload_data $end
$var wire 1 : main_ethphy_liteethphymiirx_source_source_payload_last_be $end
$var wire 1 ; main_ethphy_liteethphymiirx_source_source_payload_error $end
$var wire 1 < eth_rst_n $end
$var wire 1 = eth_mdio $end
$var wire 1 > eth_mdc $end
$var wire 1 ? eth_rx_dv $end
$var wire 1 @ eth_rx_er $end
$var wire 4 A eth_rx_data $end
$var wire 1 B eth_tx_en $end
$var wire 4 C eth_tx_data $end
$var wire 1 D eth_col $end
$var wire 1 E eth_crs $end
$var wire 1 F eth_pcf_en $end
$var wire 1 G main_basesoc_ethcore_arp_rx_sink_sink_valid $end
$var wire 1 H main_basesoc_ethcore_arp_rx_sink_sink_ready $end
$var wire 1 I main_basesoc_ethcore_arp_rx_sink_sink_first $end
$var wire 1 J main_basesoc_ethcore_arp_rx_sink_sink_last $end
$var wire 16 K main_basesoc_ethcore_arp_rx_sink_sink_payload_ethernet_type $end
$var wire 48 L main_basesoc_ethcore_arp_rx_sink_sink_payload_sender_mac $end
$var wire 48 M main_basesoc_ethcore_arp_rx_sink_sink_payload_target_mac $end
$var wire 8 N main_basesoc_ethcore_arp_rx_sink_sink_payload_data $end
$var wire 1 O main_basesoc_ethcore_arp_rx_sink_sink_payload_last_be $end
$var wire 1 P main_basesoc_ethcore_arp_rx_sink_sink_payload_error $end
$var wire 1 Q main_basesoc_ethcore_arp_tx_sink_sink_valid $end
$var wire 1 R main_basesoc_ethcore_arp_tx_sink_sink_ready $end
$var wire 1 S main_basesoc_ethcore_arp_tx_sink_sink_first $end
$var wire 1 T main_basesoc_ethcore_arp_tx_sink_sink_last $end
$var wire 1 U main_basesoc_ethcore_arp_tx_sink_sink_payload_reply $end
$var wire 1 V main_basesoc_ethcore_arp_tx_sink_sink_payload_request $end
$var wire 32 W main_basesoc_ethcore_arp_tx_sink_sink_payload_ip_address $end
$var wire 48 X main_basesoc_ethcore_arp_tx_sink_sink_payload_mac_address $end
$var wire 1 Y main_ethphy_liteethphymiitx_sink_sink_valid $end
$var wire 1 Z main_ethphy_liteethphymiitx_sink_sink_ready $end
$var wire 1 [ main_ethphy_liteethphymiitx_sink_sink_first $end
$var wire 1 \ main_ethphy_liteethphymiitx_sink_sink_last $end
$var wire 8 ] main_ethphy_liteethphymiitx_sink_sink_payload_data $end
$var wire 1 ^ main_ethphy_liteethphymiitx_sink_sink_payload_last_be $end
$var wire 1 _ main_ethphy_liteethphymiitx_sink_sink_payload_error $end
$var wire 1 ` scope_clk $end
$var wire 1 a scope_trig $end
$unscope  $end
$enddefinitions  $end
$dumpvars
bx !
bx "
bx #
bx $
bx %
bx &
bxxxxxxxxxxxxxxxxxxxxxxxxxxxxxxxx '
bxxxxxxxxxxxxxxxxxxxxxxxxxxxxxxxxxxxxxxxxxxxxxxxx (
bxxxxxxxx )
bxxxxxxxx *
bx +
bx ,
bx -
bx .
bxxxxxxxxxxxxxxxx /
bxxxxxxxxxxxxxxxxxxxxxxxxxxxxxxxxxxxxxxxxxxxxxxxx 0
bxxxxxxxxxxxxxxxxxxxxxxxxxxxxxxxxxxxxxxxxxxxxxxxx 1
bxxxxxxxx 2
bx 3
bx 4
bx 5
bx 6
bx 7
bx 8
bxxxxxxxx 9
bx :
bx ;
bx <
bx =
bx >
bx ?
bx @
bxxxx A
bx B
bxxxx C
bx D
bx E
bx F
bx G
bx H
bx I
bx J
bxxxxxxxxxxxxxxxx K
bxxxxxxxxxxxxxxxxxxxxxxxxxxxxxxxxxxxxxxxxxxxxxxxx L
bxxxxxxxxxxxxxxxxxxxxxxxxxxxxxxxxxxxxxxxxxxxxxxxx M
bxxxxxxxx N
bx O
bx P
bx Q
bx R
bx S
bx T
bx U
bx V
bxxxxxxxxxxxxxxxxxxxxxxxxxxxxxxxx W
bxxxxxxxxxxxxxxxxxxxxxxxxxxxxxxxxxxxxxxxxxxxxxxxx X
bx Y
bx Z
bx [
bx \
bxxxxxxxx ]
bx ^
bx _
bx `
bx a
$end
#0
b0 !
b0 "
b0 #
b0 $
b0 %
b0 &
b11000000101010000010101101100100 '
b100011001010111001001100111101011000000100001100 (
b11000011 )
b01110000 *
b0 +
b1 ,
b0 -
b0 .
b0000100000000110 /
b000100001110001011010101000000000000000000000000 0
b000000000000000000000000000000000000000000000000 1
b00000000 2
b0 3
b0 4
b1 5
b1 6
b0 7
b0 8
b10001100 9
b0 :
b0 ;
b1 <
b1 =
b0 >
b1 ?
b0 @
b1010 A
b0 B
b0000 C
b0 D
b1 E
b0 F
b0 G
b1 H
b0 I
b0 J
b0000000000000000 K
b000000000000000000000000000000000000000000000000 L
b000000000000000000000000000000000000000000000000 M
b00000000 N
b0 O
b0 P
b0 Q
b1 R
b0 S
b0 T
b0 U
b0 V
b00000000000000000000000000000000 W
b000000000000000000000000000000000000000000000000 X
b0 Y
b0 Z
b0 [
b0 \
b00000000 ]
b0 ^
b0 _
b1 `
b0 a
#1
b0 !
b0 "
b0 #
b0 $
b0 %
b0 &
b11000000101010000010101101100100 '
b100011001010111001001100111101011000000100001100 (
b11000011 )
b01110000 *
b0 +
b1 ,
b0 -
b0 .
b0000100000000110 /
b000100001110001011010101000000000000000000000000 0
b000000000000000000000000000000000000000000000000 1
b00000000 2
b0 3
b0 4
b1 5
b1 6
b0 7
b0 8
b10001100 9
b0 :
b0 ;
b1 <
b1 =
b0 >
b1 ?
b0 @
b1010 A
b0 B
b0000 C
b0 D
b1 E
b0 F
b0 G
b1 H
b0 I
b0 J
b0000000000000000 K
b000000000000000000000000000000000000000000000000 L
b000000000000000000000000000000000000000000000000 M
b00000000 N
b0 O
b0 P
b0 Q
b1 R
b0 S
b0 T
b0 U
b0 V
b00000000000000000000000000000000 W
b000000000000000000000000000000000000000000000000 X
b0 Y
b0 Z
b0 [
b0 \
b00000000 ]
b0 ^
b0 _
b0 `
b0 a
#2
b0 !
b0 "
b0 #
b0 $
b0 %
b0 &
b11000000101010000010101101100100 '
b100011001010111001001100111101011000000100001100 (
b11000100 )
b01110001 *
b0 +
b1 ,
b0 -
b0 .
b0000100000000110 /
b000100001110001011010101000000000000000000000000 0
b000000000000000000000000000000000000000000000000 1
b00000000 2
b0 3
b0 4
b0 5
b1 6
b0 7
b0 8
b10001110 9
b0 :
b0 ;
b1 <
b1 =
b0 >
b1 ?
b0 @
b1010 A
b0 B
b0000 C
b0 D
b1 E
b0 F
b0 G
b1 H
b0 I
b0 J
b0000000000000000 K
b000000000000000000000000000000000000000000000000 L
b000000000000000000000000000000000000000000000000 M
b00000000 N
b0 O
b0 P
b0 Q
b1 R
b0 S
b0 T
b0 U
b0 V
b00000000000000000000000000000000 W
b000000000000000000000000000000000000000000000000 X
b0 Y
b0 Z
b0 [
b0 \
b00000000 ]
b0 ^
b0 _
b1 `
b0 a
#3
b0 !
b0 "
b0 #
b0 $
b0 %
b0 &
b11000000101010000010101101100100 '
b100011001010111001001100111101011000000100001100 (
b11000100 )
b01110001 *
b0 +
b1 ,
b0 -
b0 .
b0000100000000110 /
b000100001110001011010101000000000000000000000000 0
b000000000000000000000000000000000000000000000000 1
b00000000 2
b0 3
b0 4
b0 5
b1 6
b0 7
b0 8
b10001110 9
b0 :
b0 ;
b1 <
b1 =
b0 >
b1 ?
b0 @
b1010 A
b0 B
b0000 C
b0 D
b1 E
b0 F
b0 G
b1 H
b0 I
b0 J
b0000000000000000 K
b000000000000000000000000000000000000000000000000 L
b000000000000000000000000000000000000000000000000 M
b00000000 N
b0 O
b0 P
b0 Q
b1 R
b0 S
b0 T
b0 U
b0 V
b00000000000000000000000000000000 W
b000000000000000000000000000000000000000000000000 X
b0 Y
b0 Z
b0 [
b0 \
b00000000 ]
b0 ^
b0 _
b0 `
b0 a
#4
b0 !
b0 "
b0 #
b0 $
b0 %
b0 &
b11000000101010000010101101100100 '
b100011001010111001001100111101011000000100001100 (
b11000100 )
b01110001 *
b0 +
b1 ,
b0 -
b0 .
b0000100000000110 /
b000100001110001011010101000000000000000000000000 0
b000000000000000000000000000000000000000000000000 1
b00000000 2
b0 3
b0 4
b0 5
b1 6
b0 7
b0 8
b10001110 9
b0 :
b0 ;
b1 <
b1 =
b0 >
b1 ?
b0 @
b1010 A
b0 B
b0000 C
b0 D
b1 E
b0 F
b0 G
b1 H
b0 I
b0 J
b0000000000000000 K
b000000000000000000000000000000000000000000000000 L
b000000000000000000000000000000000000000000000000 M
b00000000 N
b0 O
b0 P
b0 Q
b1 R
b0 S
b0 T
b0 U
b0 V
b00000000000000000000000000000000 W
b000000000000000000000000000000000000000000000000 X
b0 Y
b0 Z
b0 [
b0 \
b00000000 ]
b0 ^
b0 _
b1 `
b0 a
#5
b0 !
b0 "
b0 #
b0 $
b0 %
b0 &
b11000000101010000010101101100100 '
b100011001010111001001100111101011000000100001100 (
b11000100 )
b01110001 *
b0 +
b1 ,
b0 -
b0 .
b0000100000000110 /
b000100001110001011010101000000000000000000000000 0
b000000000000000000000000000000000000000000000000 1
b00000000 2
b0 3
b0 4
b0 5
b1 6
b0 7
b0 8
b10001110 9
b0 :
b0 ;
b1 <
b1 =
b0 >
b1 ?
b0 @
b1010 A
b0 B
b0000 C
b0 D
b1 E
b0 F
b0 G
b1 H
b0 I
b0 J
b0000000000000000 K
b000000000000000000000000000000000000000000000000 L
b000000000000000000000000000000000000000000000000 M
b00000000 N
b0 O
b0 P
b0 Q
b1 R
b0 S
b0 T
b0 U
b0 V
b00000000000000000000000000000000 W
b000000000000000000000000000000000000000000000000 X
b0 Y
b0 Z
b0 [
b0 \
b00000000 ]
b0 ^
b0 _
b0 `
b0 a
#6
b0 !
b0 "
b0 #
b0 $
b0 %
b0 &
b11000000101010000010101101100100 '
b100011001010111001001100111101011000000100001100 (
b11000100 )
b01110001 *
b0 +
b1 ,
b0 -
b0 .
b0000100000000110 /
b000100001110001011010101000000000000000000000000 0
b000000000000000000000000000000000000000000000000 1
b00000000 2
b0 3
b0 4
b0 5
b1 6
b0 7
b0 8
b10001110 9
b0 :
b0 ;
b1 <
b1 =
b0 >
b1 ?
b0 @
b1100 A
b0 B
b0000 C
b0 D
b1 E
b0 F
b0 G
b1 H
b0 I
b0 J
b0000000000000000 K
b000000000000000000000000000000000000000000000000 L
b000000000000000000000000000000000000000000000000 M
b00000000 N
b0 O
b0 P
b0 Q
b1 R
b0 S
b0 T
b0 U
b0 V
b00000000000000000000000000000000 W
b000000000000000000000000000000000000000000000000 X
b0 Y
b0 Z
b0 [
b0 \
b00000000 ]
b0 ^
b0 _
b1 `
b0 a
#7
b0 !
b0 "
b0 #
b0 $
b0 %
b0 &
b11000000101010000010101101100100 '
b100011001010111001001100111101011000000100001100 (
b11000100 )
b01110001 *
b0 +
b1 ,
b0 -
b0 .
b0000100000000110 /
b000100001110001011010101000000000000000000000000 0
b000000000000000000000000000000000000000000000000 1
b00000000 2
b0 3
b0 4
b0 5
b1 6
b0 7
b0 8
b10001110 9
b0 :
b0 ;
b1 <
b1 =
b0 >
b1 ?
b0 @
b1100 A
b0 B
b0000 C
b0 D
b1 E
b0 F
b0 G
b1 H
b0 I
b0 J
b0000000000000000 K
b000000000000000000000000000000000000000000000000 L
b000000000000000000000000000000000000000000000000 M
b00000000 N
b0 O
b0 P
b0 Q
b1 R
b0 S
b0 T
b0 U
b0 V
b00000000000000000000000000000000 W
b000000000000000000000000000000000000000000000000 X
b0 Y
b0 Z
b0 [
b0 \
b00000000 ]
b0 ^
b0 _
b0 `
b0 a
#8
b0 !
b0 "
b0 #
b0 $
b0 %
b0 &
b11000000101010000010101101100100 '
b100011001010111001001100111101011000000100001100 (
b11000100 )
b01110001 *
b0 +
b1 ,
b0 -
b0 .
b0000100000000110 /
b000100001110001011010101000000000000000000000000 0
b000000000000000000000000000000000000000000000000 1
b00000000 2
b0 3
b0 4
b0 5
b1 6
b0 7
b0 8
b10001110 9
b0 :
b0 ;
b1 <
b1 =
b0 >
b1 ?
b0 @
b1100 A
b0 B
b0000 C
b0 D
b1 E
b0 F
b0 G
b1 H
b0 I
b0 J
b0000000000000000 K
b000000000000000000000000000000000000000000000000 L
b000000000000000000000000000000000000000000000000 M
b00000000 N
b0 O
b0 P
b0 Q
b1 R
b0 S
b0 T
b0 U
b0 V
b00000000000000000000000000000000 W
b000000000000000000000000000000000000000000000000 X
b0 Y
b0 Z
b0 [
b0 \
b00000000 ]
b0 ^
b0 _
b1 `
b0 a
#9
b0 !
b0 "
b0 #
b0 $
b0 %
b0 &
b11000000101010000010101101100100 '
b100011001010111001001100111101011000000100001100 (
b11000100 )
b01110001 *
b0 +
b1 ,
b0 -
b0 .
b0000100000000110 /
b000100001110001011010101000000000000000000000000 0
b000000000000000000000000000000000000000000000000 1
b00000000 2
b0 3
b0 4
b0 5
b1 6
b0 7
b0 8
b10001110 9
b0 :
b0 ;
b1 <
b1 =
b0 >
b1 ?
b0 @
b1100 A
b0 B
b0000 C
b0 D
b1 E
b0 F
b0 G
b1 H
b0 I
b0 J
b0000000000000000 K
b000000000000000000000000000000000000000000000000 L
b000000000000000000000000000000000000000000000000 M
b00000000 N
b0 O
b0 P
b0 Q
b1 R
b0 S
b0 T
b0 U
b0 V
b00000000000000000000000000000000 W
b000000000000000000000000000000000000000000000000 X
b0 Y
b0 Z
b0 [
b0 \
b00000000 ]
b0 ^
b0 _
b0 `
b0 a
#10
b0 !
b0 "
b0 #
b0 $
b0 %
b0 &
b11000000101010000010101101100100 '
b100011001010111001001100111101011000000100001100 (
b11000101 )
b01110010 *
b0 +
b1 ,
b0 -
b0 .
b0000100000000110 /
b000100001110001011010101000000000000000000000000 0
b000000000000000000000000000000000000000000000000 1
b00000000 2
b0 3
b0 4
b1 5
b1 6
b0 7
b0 8
b10101110 9
b0 :
b0 ;
b1 <
b1 =
b0 >
b1 ?
b0 @
b1100 A
b0 B
b0000 C
b0 D
b1 E
b0 F
b0 G
b1 H
b0 I
b0 J
b0000000000000000 K
b000000000000000000000000000000000000000000000000 L
b000000000000000000000000000000000000000000000000 M
b00000000 N
b0 O
b0 P
b0 Q
b1 R
b0 S
b0 T
b0 U
b0 V
b00000000000000000000000000000000 W
b000000000000000000000000000000000000000000000000 X
b0 Y
b0 Z
b0 [
b0 \
b00000000 ]
b0 ^
b0 _
b1 `
b0 a
#11
b0 !
b0 "
b0 #
b0 $
b0 %
b0 &
b11000000101010000010101101100100 '
b100011001010111001001100111101011000000100001100 (
b11000101 )
b01110010 *
b0 +
b1 ,
b0 -
b0 .
b0000100000000110 /
b000100001110001011010101000000000000000000000000 0
b000000000000000000000000000000000000000000000000 1
b00000000 2
b0 3
b0 4
b1 5
b1 6
b0 7
b0 8
b10101110 9
b0 :
b0 ;
b1 <
b1 =
b0 >
b1 ?
b0 @
b1100 A
b0 B
b0000 C
b0 D
b1 E
b0 F
b0 G
b1 H
b0 I
b0 J
b0000000000000000 K
b000000000000000000000000000000000000000000000000 L
b000000000000000000000000000000000000000000000000 M
b00000000 N
b0 O
b0 P
b0 Q
b1 R
b0 S
b0 T
b0 U
b0 V
b00000000000000000000000000000000 W
b000000000000000000000000000000000000000000000000 X
b0 Y
b0 Z
b0 [
b0 \
b00000000 ]
b0 ^
b0 _
b0 `
b0 a
#12
b0 !
b0 "
b0 #
b0 $
b0 %
b0 &
b11000000101010000010101101100100 '
b100011001010111001001100111101011000000100001100 (
b11000101 )
b01110010 *
b0 +
b1 ,
b0 -
b0 .
b0000100000000110 /
b000100001110001011010101000000000000000000000000 0
b000000000000000000000000000000000000000000000000 1
b00000000 2
b0 3
b0 4
b1 5
b1 6
b0 7
b0 8
b10101110 9
b0 :
b0 ;
b1 <
b1 =
b0 >
b1 ?
b0 @
b1100 A
b0 B
b0000 C
b0 D
b1 E
b0 F
b0 G
b1 H
b0 I
b0 J
b0000000000000000 K
b000000000000000000000000000000000000000000000000 L
b000000000000000000000000000000000000000000000000 M
b00000000 N
b0 O
b0 P
b0 Q
b1 R
b0 S
b0 T
b0 U
b0 V
b00000000000000000000000000000000 W
b000000000000000000000000000000000000000000000000 X
b0 Y
b0 Z
b0 [
b0 \
b00000000 ]
b0 ^
b0 _
b1 `
b0 a
#13
b0 !
b0 "
b0 #
b0 $
b0 %
b0 &
b11000000101010000010101101100100 '
b100011001010111001001100111101011000000100001100 (
b11000101 )
b01110010 *
b0 +
b1 ,
b0 -
b0 .
b0000100000000110 /
b000100001110001011010101000000000000000000000000 0
b000000000000000000000000000000000000000000000000 1
b00000000 2
b0 3
b0 4
b1 5
b1 6
b0 7
b0 8
b10101110 9
b0 :
b0 ;
b1 <
b1 =
b0 >
b1 ?
b0 @
b1100 A
b0 B
b0000 C
b0 D
b1 E
b0 F
b0 G
b1 H
b0 I
b0 J
b0000000000000000 K
b000000000000000000000000000000000000000000000000 L
b000000000000000000000000000000000000000000000000 M
b00000000 N
b0 O
b0 P
b0 Q
b1 R
b0 S
b0 T
b0 U
b0 V
b00000000000000000000000000000000 W
b000000000000000000000000000000000000000000000000 X
b0 Y
b0 Z
b0 [
b0 \
b00000000 ]
b0 ^
b0 _
b0 `
b0 a
#14
b0 !
b0 "
b0 #
b0 $
b0 %
b0 &
b11000000101010000010101101100100 '
b100011001010111001001100111101011000000100001100 (
b11000101 )
b01110010 *
b0 +
b1 ,
b0 -
b0 .
b0000100000000110 /
b000100001110001011010101000000000000000000000000 0
b000000000000000000000000000000000000000000000000 1
b00000000 2
b0 3
b0 4
b1 5
b1 6
b0 7
b0 8
b10101110 9
b0 :
b0 ;
b1 <
b1 =
b0 >
b1 ?
b0 @
b0100 A
b0 B
b0000 C
b0 D
b1 E
b0 F
b0 G
b1 H
b0 I
b0 J
b0000000000000000 K
b000000000000000000000000000000000000000000000000 L
b000000000000000000000000000000000000000000000000 M
b00000000 N
b0 O
b0 P
b0 Q
b1 R
b0 S
b0 T
b0 U
b0 V
b00000000000000000000000000000000 W
b000000000000000000000000000000000000000000000000 X
b0 Y
b0 Z
b0 [
b0 \
b00000000 ]
b0 ^
b0 _
b1 `
b0 a
#15
b0 !
b0 "
b0 #
b0 $
b0 %
b0 &
b11000000101010000010101101100100 '
b100011001010111001001100111101011000000100001100 (
b11000101 )
b01110010 *
b0 +
b1 ,
b0 -
b0 .
b0000100000000110 /
b000100001110001011010101000000000000000000000000 0
b000000000000000000000000000000000000000000000000 1
b00000000 2
b0 3
b0 4
b1 5
b1 6
b0 7
b0 8
b10101110 9
b0 :
b0 ;
b1 <
b1 =
b0 >
b1 ?
b0 @
b0100 A
b0 B
b0000 C
b0 D
b1 E
b0 F
b0 G
b1 H
b0 I
b0 J
b0000000000000000 K
b000000000000000000000000000000000000000000000000 L
b000000000000000000000000000000000000000000000000 M
b00000000 N
b0 O
b0 P
b0 Q
b1 R
b0 S
b0 T
b0 U
b0 V
b00000000000000000000000000000000 W
b000000000000000000000000000000000000000000000000 X
b0 Y
b0 Z
b0 [
b0 \
b00000000 ]
b0 ^
b0 _
b0 `
b0 a
#16
b0 !
b0 "
b0 #
b0 $
b0 %
b0 &
b11000000101010000010101101100100 '
b100011001010111001001100111101011000000100001100 (
b11000101 )
b01110010 *
b0 +
b1 ,
b0 -
b0 .
b0000100000000110 /
b000100001110001011010101000000000000000000000000 0
b000000000000000000000000000000000000000000000000 1
b00000000 2
b0 3
b0 4
b1 5
b1 6
b0 7
b0 8
b10101110 9
b0 :
b0 ;
b1 <
b1 =
b0 >
b1 ?
b0 @
b0100 A
b0 B
b0000 C
b0 D
b1 E
b0 F
b0 G
b1 H
b0 I
b0 J
b0000000000000000 K
b000000000000000000000000000000000000000000000000 L
b000000000000000000000000000000000000000000000000 M
b00000000 N
b0 O
b0 P
b0 Q
b1 R
b0 S
b0 T
b0 U
b0 V
b00000000000000000000000000000000 W
b000000000000000000000000000000000000000000000000 X
b0 Y
b0 Z
b0 [
b0 \
b00000000 ]
b0 ^
b0 _
b1 `
b0 a
#17
b0 !
b0 "
b0 #
b0 $
b0 %
b0 &
b11000000101010000010101101100100 '
b100011001010111001001100111101011000000100001100 (
b11000101 )
b01110010 *
b0 +
b1 ,
b0 -
b0 .
b0000100000000110 /
b000100001110001011010101000000000000000000000000 0
b000000000000000000000000000000000000000000000000 1
b00000000 2
b0 3
b0 4
b1 5
b1 6
b0 7
b0 8
b10101110 9
b0 :
b0 ;
b1 <
b1 =
b0 >
b1 ?
b0 @
b0100 A
b0 B
b0000 C
b0 D
b1 E
b0 F
b0 G
b1 H
b0 I
b0 J
b0000000000000000 K
b000000000000000000000000000000000000000000000000 L
b000000000000000000000000000000000000000000000000 M
b00000000 N
b0 O
b0 P
b0 Q
b1 R
b0 S
b0 T
b0 U
b0 V
b00000000000000000000000000000000 W
b000000000000000000000000000000000000000000000000 X
b0 Y
b0 Z
b0 [
b0 \
b00000000 ]
b0 ^
b0 _
b0 `
b0 a
#18
b0 !
b0 "
b0 #
b0 $
b0 %
b0 &
b11000000101010000010101101100100 '
b100011001010111001001100111101011000000100001100 (
b11000110 )
b01110011 *
b0 +
b1 ,
b0 -
b0 .
b0000100000000110 /
b000100001110001011010101000000000000000000000000 0
b000000000000000000000000000000000000000000000000 1
b00000000 2
b0 3
b0 4
b0 5
b1 6
b0 7
b0 8
b10101100 9
b0 :
b0 ;
b1 <
b1 =
b0 >
b1 ?
b0 @
b0100 A
b0 B
b0000 C
b0 D
b1 E
b0 F
b0 G
b1 H
b0 I
b0 J
b0000000000000000 K
b000000000000000000000000000000000000000000000000 L
b000000000000000000000000000000000000000000000000 M
b00000000 N
b0 O
b0 P
b0 Q
b1 R
b0 S
b0 T
b0 U
b0 V
b00000000000000000000000000000000 W
b000000000000000000000000000000000000000000000000 X
b0 Y
b0 Z
b0 [
b0 \
b00000000 ]
b0 ^
b0 _
b1 `
b0 a
#19
b0 !
b0 "
b0 #
b0 $
b0 %
b0 &
b11000000101010000010101101100100 '
b100011001010111001001100111101011000000100001100 (
b11000110 )
b01110011 *
b0 +
b1 ,
b0 -
b0 .
b0000100000000110 /
b000100001110001011010101000000000000000000000000 0
b000000000000000000000000000000000000000000000000 1
b00000000 2
b0 3
b0 4
b0 5
b1 6
b0 7
b0 8
b10101100 9
b0 :
b0 ;
b1 <
b1 =
b0 >
b1 ?
b0 @
b0100 A
b0 B
b0000 C
b0 D
b1 E
b0 F
b0 G
b1 H
b0 I
b0 J
b0000000000000000 K
b000000000000000000000000000000000000000000000000 L
b000000000000000000000000000000000000000000000000 M
b00000000 N
b0 O
b0 P
b0 Q
b1 R
b0 S
b0 T
b0 U
b0 V
b00000000000000000000000000000000 W
b000000000000000000000000000000000000000000000000 X
b0 Y
b0 Z
b0 [
b0 \
b00000000 ]
b0 ^
b0 _
b0 `
b0 a
#20
b0 !
b0 "
b0 #
b0 $
b0 %
b0 &
b11000000101010000010101101100100 '
b100011001010111001001100111101011000000100001100 (
b11000110 )
b01110011 *
b0 +
b1 ,
b0 -
b0 .
b0000100000000110 /
b000100001110001011010101000000000000000000000000 0
b000000000000000000000000000000000000000000000000 1
b00000000 2
b0 3
b0 4
b0 5
b1 6
b0 7
b0 8
b10101100 9
b0 :
b0 ;
b1 <
b1 =
b0 >
b1 ?
b0 @
b0100 A
b0 B
b0000 C
b0 D
b1 E
b0 F
b0 G
b1 H
b0 I
b0 J
b0000000000000000 K
b000000000000000000000000000000000000000000000000 L
b000000000000000000000000000000000000000000000000 M
b00000000 N
b0 O
b0 P
b0 Q
b1 R
b0 S
b0 T
b0 U
b0 V
b00000000000000000000000000000000 W
b000000000000000000000000000000000000000000000000 X
b0 Y
b0 Z
b0 [
b0 \
b00000000 ]
b0 ^
b0 _
b1 `
b0 a
#21
b0 !
b0 "
b0 #
b0 $
b0 %
b0 &
b11000000101010000010101101100100 '
b100011001010111001001100111101011000000100001100 (
b11000110 )
b01110011 *
b0 +
b1 ,
b0 -
b0 .
b0000100000000110 /
b000100001110001011010101000000000000000000000000 0
b000000000000000000000000000000000000000000000000 1
b00000000 2
b0 3
b0 4
b0 5
b1 6
b0 7
b0 8
b10101100 9
b0 :
b0 ;
b1 <
b1 =
b0 >
b1 ?
b0 @
b0100 A
b0 B
b0000 C
b0 D
b1 E
b0 F
b0 G
b1 H
b0 I
b0 J
b0000000000000000 K
b000000000000000000000000000000000000000000000000 L
b000000000000000000000000000000000000000000000000 M
b00000000 N
b0 O
b0 P
b0 Q
b1 R
b0 S
b0 T
b0 U
b0 V
b00000000000000000000000000000000 W
b000000000000000000000000000000000000000000000000 X
b0 Y
b0 Z
b0 [
b0 \
b00000000 ]
b0 ^
b0 _
b0 `
b0 a
#22
b0 !
b0 "
b0 #
b0 $
b0 %
b0 &
b11000000101010000010101101100100 '
b100011001010111001001100111101011000000100001100 (
b11000110 )
b01110011 *
b0 +
b1 ,
b0 -
b0 .
b0000100000000110 /
b000100001110001011010101000000000000000000000000 0
b000000000000000000000000000000000000000000000000 1
b00000000 2
b0 3
b0 4
b0 5
b1 6
b0 7
b0 8
b10101100 9
b0 :
b0 ;
b1 <
b1 =
b0 >
b1 ?
b0 @
b0101 A
b0 B
b0000 C
b0 D
b1 E
b0 F
b0 G
b1 H
b0 I
b0 J
b0000000000000000 K
b000000000000000000000000000000000000000000000000 L
b000000000000000000000000000000000000000000000000 M
b00000000 N
b0 O
b0 P
b0 Q
b1 R
b0 S
b0 T
b0 U
b0 V
b00000000000000000000000000000000 W
b000000000000000000000000000000000000000000000000 X
b0 Y
b0 Z
b0 [
b0 \
b00000000 ]
b0 ^
b0 _
b1 `
b0 a
#23
b0 !
b0 "
b0 #
b0 $
b0 %
b0 &
b11000000101010000010101101100100 '
b100011001010111001001100111101011000000100001100 (
b11000110 )
b01110011 *
b0 +
b1 ,
b0 -
b0 .
b0000100000000110 /
b000100001110001011010101000000000000000000000000 0
b000000000000000000000000000000000000000000000000 1
b00000000 2
b0 3
b0 4
b0 5
b1 6
b0 7
b0 8
b10101100 9
b0 :
b0 ;
b1 <
b1 =
b0 >
b1 ?
b0 @
b0101 A
b0 B
b0000 C
b0 D
b1 E
b0 F
b0 G
b1 H
b0 I
b0 J
b0000000000000000 K
b000000000000000000000000000000000000000000000000 L
b000000000000000000000000000000000000000000000000 M
b00000000 N
b0 O
b0 P
b0 Q
b1 R
b0 S
b0 T
b0 U
b0 V
b00000000000000000000000000000000 W
b000000000000000000000000000000000000000000000000 X
b0 Y
b0 Z
b0 [
b0 \
b00000000 ]
b0 ^
b0 _
b0 `
b0 a
#24
b0 !
b0 "
b0 #
b0 $
b0 %
b0 &
b11000000101010000010101101100100 '
b100011001010111001001100111101011000000100001100 (
b11000110 )
b01110100 *
b0 +
b1 ,
b0 -
b0 .
b0000100000000110 /
b000100001110001011010101000000000000000000000000 0
b000000000000000000000000000000000000000000000000 1
b00000000 2
b0 3
b0 4
b0 5
b1 6
b0 7
b0 8
b10101100 9
b0 :
b0 ;
b1 <
b1 =
b0 >
b1 ?
b0 @
b0101 A
b0 B
b0000 C
b0 D
b1 E
b0 F
b0 G
b1 H
b0 I
b0 J
b0000000000000000 K
b000000000000000000000000000000000000000000000000 L
b000000000000000000000000000000000000000000000000 M
b00000000 N
b0 O
b0 P
b0 Q
b1 R
b0 S
b0 T
b0 U
b0 V
b00000000000000000000000000000000 W
b000000000000000000000000000000000000000000000000 X
b0 Y
b0 Z
b0 [
b0 \
b00000000 ]
b0 ^
b0 _
b1 `
b0 a
